{"rows":9,"cols":9,
"words":["BASSOON","BOMBARD","CLAGHORN","CLARINET","COWBELL","UKULELE","VIOLIN","VOCODER"],

"boardCharacters":[
["N","R","O","H","G","A","L","C","T"],
["E","L","E","L","U","K","U","R","E"],
["V","I","O","L","I","N","E","B","N"],
["J","L","E","C","O","D","F","O","I"],
["B","A","S","S","O","O","N","M","R"],
["C","P","Y","C","B","C","T","B","A"],
["M","Q","O","S","C","S","F","A","L"],
["V","V","E","R","Z","B","Z","R","C"],
["C","O","W","B","E","L","L","D","O"]
],

"wordPlacements":
[{"word":"BASSOON","row":4,"col":0,"h":1,"v":0},
{"word":"BOMBARD","row":2,"col":7,"h":0,"v":1},
{"word":"CLAGHORN","row":0,"col":7,"h":-1,"v":0},
{"word":"CLARINET","row":7,"col":8,"h":0,"v":-1},
{"word":"COWBELL","row":8,"col":0,"h":1,"v":0},
{"word":"UKULELE","row":1,"col":6,"h":-1,"v":0},
{"word":"VIOLIN","row":2,"col":0,"h":1,"v":0},
{"word":"VOCODER","row":7,"col":1,"h":1,"v":-1}]}