{"rows":8,"cols":8,
"words":["BONGOS","BUCCINA","CONGAS","DRUMS","GUITAR","MBIRA","PIANO","SNARE"],

"boardCharacters":[
["S","M","U","R","D","R","C","B"],
["F","A","V","A","E","A","O","U"],
["P","Q","G","R","A","T","N","C"],
["G","E","A","I","A","I","G","C"],
["H","N","Z","B","W","U","A","I"],
["S","X","U","M","B","G","S","N"],
["B","O","N","G","O","S","P","A"],
["P","I","A","N","O","P","H","E"]
],

"wordPlacements":
[{"word":"BONGOS","row":6,"col":0,"h":1,"v":0},
{"word":"BUCCINA","row":0,"col":7,"h":0,"v":1},
{"word":"CONGAS","row":0,"col":6,"h":0,"v":1},
{"word":"DRUMS","row":0,"col":4,"h":-1,"v":0},
{"word":"GUITAR","row":5,"col":5,"h":0,"v":-1},
{"word":"MBIRA","row":5,"col":3,"h":0,"v":-1},
{"word":"PIANO","row":7,"col":0,"h":1,"v":0},
{"word":"SNARE","row":5,"col":0,"h":1,"v":-1}]}