{"rows":6,"cols":6,
    "words":["CAKE","CAT","DOG","FRUIT","GIFTS","TOYS"],
    "boardCharacters":[["X","K","M","S","F","C"],
                       ["X","O","Y","H","R","A"],
                       ["G","O","D","X","U","K"],
                       ["T","A","C","D","I","E"],
                       ["K","G","I","F","T","S"],
                       ["C","X","T","A","A","A"]],
    
    "wordPlacements":[{"word":"CAKE","row":0,"col":5,"h":0,"v":1},
                      {"word":"CAT","row":3,"col":2,"h":-1,"v":0},
                      {"word":"DOG","row":2,"col":2,"h":-1,"v":0},
                      {"word":"FRUIT","row":0,"col":4,"h":0,"v":1},
                      {"word":"GIFTS","row":4,"col":1,"h":1,"v":0},
                      {"word":"TOYS","row":3,"col":0,"h":1,"v":-1}
                      ]}














































































































