{"rows":10,"cols":10,"words":["CHAYOTE","CROWBERRY","HONEYBERRY","KIWANO","POMELO","PULASAN","SAGUARO","STARFRUIT"],
"boardCharacters":[
["O","A","J","Z","Q","G","C","S","E","H"],
["R","C","P","H","L","Q","R","T","T","O"],
["A","J","S","V","O","O","O","A","O","N"],
["U","T","H","U","L","K","W","R","Y","E"],
["G","E","Z","E","I","Q","B","F","A","Y"],
["A","N","M","W","D","H","E","R","H","B"],
["S","O","A","A","J","A","R","U","C","E"],
["P","N","O","Q","X","R","R","I","O","R"],
["O","I","M","F","U","F","Y","T","X","R"],
["N","A","S","A","L","U","P","G","M","Y"]],
"wordPlacements":[
{"word":"CHAYOTE","row":6,"col":8,"h":0,"v":-1},
{"word":"CROWBERRY","row":0,"col":6,"h":0,"v":1},
{"word":"HONEYBERRY","row":0,"col":9,"h":0,"v":1},
{"word":"KIWANO","row":3,"col":5,"h":-1,"v":1},
{"word":"POMELO","row":7,"col":0,"h":1,"v":-1},
{"word":"PULASAN","row":9,"col":6,"h":-1,"v":0},
{"word":"SAGUARO","row":6,"col":0,"h":0,"v":-1},
{"word":"STARFRUIT","row":0,"col":7,"h":0,"v":1}]}
















