{"rows":7,"cols":7,
    "words":["CALM","DRAW","EAT","HUMBLE","HYGIENE","MUSIC","READ","SLEEP","SOCIAL"],
    "boardCharacters":[["S","E","R","E","A","D","E"], 
                       ["E","O","D","A","D","N","D"],
                       ["L","Q","C","T","E","R","M"],
                       ["B","Q","D","I","A","L","U"],
                       ["M","F","G","W","A","W","S"],
                       ["U","Y","H","C","C","L","I"],
                       ["H","S","L","E","E","P","C"]],
    
    "wordPlacements":[{"word":"CALM","row":5,"col":3,"h":1,"v":-1},
                      {"word":"DRAW","row":1,"col":6,"h":-1,"v":1},
                      {"word":"EAT","row":0,"col":3,"h":0,"v":1},
                      {"word":"HUMBLE","row":6,"col":0,"h":0,"v":-1},
                      {"word":"HYGIENE","row":6,"col":0,"h":1,"v":-1},
                      {"word":"MUSIC","row":2,"col":6,"h":0,"v":1},
                      {"word":"READ","row":0,"col":2,"h":1,"v":0},
                      {"word":"SLEEP","row":6,"col":1,"h":1,"v":0},
                      {"word":"SOCIAL","row":0,"col":0,"h":1,"v":1}
                      ]}






































































































