{"rows":10,"cols":10,"words":["BOOTS","CHILL","CHIMNEY","CLOUDS","COAT","COLDER","FOOD","FROZEN","GLOVES","HARSH","ICEBERG","SHIVER","SKI"],
"boardCharacters":[
["F","L","C","I","K","C","I","W","Y","R"], 
["U","R","G","O","O","X","C","A","S","U"], 
["H","B","O","L","A","H","E","L","K","Q"], 
["C","S","D","Z","I","T","B","L","I","O"], 
["H","E","R","M","E","R","E","I","T","Q"], 
["R","N","N","A","G","N","R","H","E","S"], 
["R","E","V","I","H","S","G","C","T","D"], 
["Y","G","L","O","V","E","S","O","U","B"], 
["C","L","O","U","D","S","O","J","A","W"], 
["N","V","D","R","K","B","D","O","O","F"]     
],
"wordPlacements":[
{"word":"BOOTS","row":9,"col":5,"h":1,"v":-1},
{"word":"CHILL","row":6,"col":7,"h":0,"v":-1},
{"word":"CHIMNEY","row":1,"col":6,"h":-1,"v":1},
{"word":"CLOUDS","row":8,"col":0,"h":1,"v":0},
{"word":"COAT","row":0,"col":2,"h":1,"v":1},
{"word":"COLDER","row":0,"col":5,"h":-1,"v":1},
{"word":"FOOD","row":9,"col":9,"h":-1,"v":0},
{"word":"FROZEN","row":0,"col":0,"h":1,"v":1},
{"word":"GLOVES","row":7,"col":1,"h":1,"v":0},
{"word":"HARSH","row":6,"col":4,"h":-1,"v":-1},
{"word":"ICEBERG","row":0,"col":6,"h":0,"v":1},
{"word":"SHIVER","row":6,"col":5,"h":-1,"v":0},
{"word":"SKI","row":1,"col":8,"h":0,"v":1}]}








































