{"rows":7,"cols":7,"words":["BLOOM","BLOSSOM","BUNNY","GRASS","GREEN","GROW","RAIN","SPRING"],
"boardCharacters":[
["Y","S","Y","N","N","U","B"], 
["L","S","P","S","G","L","S"], 
["R","L","J","R","O","L","S"], 
["A","A","E","S","I","B","A"], 
["I","E","S","B","C","N","R"], 
["N","O","G","R","O","W","G"], 
["M","M","O","O","L","B","Z"]  
],
"wordPlacements":[
{"word":"BLOOM","row":6,"col":5,"h":-1,"v":0},
{"word":"BLOSSOM","row":0,"col":6,"h":-1,"v":1},
{"word":"BUNNY","row":0,"col":6,"h":-1,"v":0},
{"word":"GRASS","row":5,"col":6,"h":0,"v":-1},
{"word":"GREEN","row":1,"col":4,"h":-1,"v":1},
{"word":"GROW","row":5,"col":2,"h":1,"v":0},
{"word":"RAIN","row":2,"col":0,"h":0,"v":1},
{"word":"SPRING","row":0,"col":1,"h":1,"v":1}]}





































