{"rows":9,"cols":9,
"words":["KEFIR","KIMCHI","KOMBUCHA","RHUBARB","TAMARIND","VINEGARS","YOGURT"],

"boardCharacters":[
["R","R","S","V","A","X","F","W","S"],
["W","E","K","E","F","I","R","R","X"],
["D","N","I","R","A","M","A","T","U"],
["C","E","M","Y","O","G","U","R","T"],
["G","X","C","S","E","D","O","K","B"],
["O","I","H","N","A","I","P","R","L"],
["S","M","I","M","G","Q","R","J","T"],
["V","V","B","R","A","B","U","H","R"],
["K","O","M","B","U","C","H","A","Z"]
],

"wordPlacements":
[{"word":"KEFIR","row":1,"col":2,"h":1,"v":0},
{"word":"KIMCHI","row":1,"col":2,"h":0,"v":1},
{"word":"KOMBUCHA","row":8,"col":0,"h":1,"v":0},
{"word":"RHUBARB","row":7,"col":8,"h":-1,"v":0},
{"word":"TAMARIND","row":2,"col":7,"h":-1,"v":0},
{"word":"VINEGARS","row":7,"col":1,"h":1,"v":-1},
{"word":"YOGURT","row":3,"col":3,"h":1,"v":0}]}