{"rows":8,"cols":8,
"words":["APPLE","AVOCADO","BANANA","CARROT","LETTUCE","PEAS","POTATOES","RYE"],

"boardCharacters":[
["E","C","U","T","T","E","L","M"],
["N","L","T","Y","B","L","G","A"],
["Z","W","P","E","A","S","Y","C"],
["U","N","P","P","N","A","Z","N"],
["T","O","R","R","A","C","I","T"],
["F","D","Y","C","N","M","S","A"],
["S","E","O","T","A","T","O","P"],
["O","D","A","C","O","V","A","B"]
],

"wordPlacements":
[{"word":"APPLE","row":4,"col":4,"h":-1,"v":-1},
{"word":"AVOCADO","row":7,"col":6,"h":-1,"v":0},
{"word":"BANANA","row":1,"col":4,"h":0,"v":1},
{"word":"CARROT","row":4,"col":5,"h":-1,"v":0},
{"word":"LETTUCE","row":0,"col":6,"h":-1,"v":0},
{"word":"PEAS","row":2,"col":2,"h":1,"v":0},
{"word":"POTATOES","row":6,"col":7,"h":-1,"v":0},
{"word":"RYE","row":4,"col":3,"h":-1,"v":1}]}