{"rows":9,"cols":9,
"words":["BRUSSELS","CABBAGE","COCOA","COFFEE","KALE","REDWINE","SPROUTS"],

"boardCharacters":[
["C","E","R","A","J","P","V","J","A"],
["A","V","E","H","V","X","G","D","U"],
["B","B","S","F","M","U","W","V","P"],
["B","Q","V","T","F","M","S","O","H"],
["A","H","Q","L","U","O","J","L","K"],
["G","V","M","A","C","O","C","O","A"],
["E","N","I","W","D","E","R","A","L"],
["I","T","M","E","D","I","H","P","E"],
["V","B","R","U","S","S","E","L","S"]
],

"wordPlacements":
[{"word":"BRUSSELS","row":8,"col":1,"h":1,"v":0},
{"word":"CABBAGE","row":0,"col":0,"h":0,"v":1},
{"word":"COCOA","row":5,"col":4,"h":1,"v":0},
{"word":"COFFEE","row":5,"col":6,"h":-1,"v":-1},
{"word":"KALE","row":4,"col":8,"h":0,"v":1},
{"word":"REDWINE","row":6,"col":6,"h":-1,"v":0},
{"word":"SPROUTS","row":8,"col":8,"h":-1,"v":-1}]}