{"rows":8,"cols":8,"words":["ANTICS","APRIL","CHILDISH","COMICAL","CRAFTY","NUTTY","PLAYFUL","RIDDLE","SPOOF"],
"boardCharacters":[
["C","R","A","F","T","Y","A","L"], 
["O","K","L","S","E","T","A","U"], 
["M","P","I","J","L","T","N","F"], 
["I","O","R","P","D","U","T","Y"], 
["C","O","P","W","D","N","I","A"], 
["A","P","A","W","I","I","C","L"], 
["L","S","G","P","R","T","S","P"],
["C","H","I","L","D","I","S","H"]
 ],
"wordPlacements":[
{"word":"ANTICS","row":1,"col":6,"h":0,"v":1},
{"word":"APRIL","row":5,"col":2,"h":0,"v":-1},
{"word":"CHILDISH","row":7,"col":0,"h":1,"v":0},
{"word":"COMICAL","row":0,"col":0,"h":0,"v":1},
{"word":"CRAFTY","row":0,"col":0,"h":1,"v":0},
{"word":"NUTTY","row":4,"col":5,"h":0,"v":-1},
{"word":"PLAYFUL","row":6,"col":7,"h":0,"v":-1},
{"word":"RIDDLE","row":6,"col":4,"h":0,"v":-1},
{"word":"SPOOF","row":6,"col":1,"h":0,"v":-1}]}




































