{"rows":7,"cols":7,
"words":["CHAIR","COUCH","OVEN","ROOF","SOAP","TABLE","TOWEL","VILLA"],

"boardCharacters":[
["Z","L","Q","P","C","T","C"],
["F","X","A","H","K","O","L"],
["Z","O","A","N","U","V","E"],
["S","I","O","C","R","I","W"],
["R","S","H","R","E","L","O"],
["V","O","V","E","N","L","T"],
["E","L","B","A","T","A","N"]
],

"wordPlacements":
[{"word":"CHAIR","row":0,"col":4,"h":-1,"v":1},
{"word":"COUCH","row":0,"col":6,"h":-1,"v":1},
{"word":"OVEN","row":5,"col":1,"h":1,"v":0},
{"word":"ROOF","row":4,"col":3,"h":-1,"v":-1},
{"word":"SOAP","row":3,"col":0,"h":1,"v":-1},
{"word":"TABLE","row":6,"col":4,"h":-1,"v":0},
{"word":"TOWEL","row":5,"col":6,"h":0,"v":-1},
{"word":"VILLA","row":2,"col":5,"h":0,"v":1}]}