{"rows":12,"cols":10,
    "words":["ACE","DOWNEAST","URBANTREE","ATLANTA","SEATTLE","WESTCOTT","CRISPIN","TRIPLEJAM","WOLFFER"],
    "boardCharacters":[
                       ["N","I","P","S","I","R","C","F","W","M"],
                       ["Q","Y","F","X","S","C","S","S","E","A"],
                       ["U","W","O","F","F","F","E","R","S","J"],
                       ["B","R","I","W","R","P","A","P","T","E"],
                       ["H","G","B","P","E","N","T","V","C","L"],
                       ["J","C","S","A","W","R","T","Z","O","P"],
                       ["N","V","C","T","N","F","L","C","T","I"],
                       ["A","S","F","L","F","T","E","S","T","R"],
                       ["S","G","D","A","C","E","R","R","P","T"],
                       ["D","T","H","N","Q","N","M","E","Y","C"],
                       ["I","G","D","T","V","H","K","U","E","G"],
                       ["B","T","S","A","E","N","W","O","D","F"]
                       ],
    "wordPlacements":[{"word":"ACE",
                      "row":8,
                      "col":3,
                      "h":1,
                      "v":0},
                      {"word":"DOWNEAST",
                      "row":11,
                      "col":8,
                      "h":-1,
                      "v":-1},
                      {"word":"URBANTREE",
                      "row":2,
                      "col":0,
                      "h":1,
                      "v":1},
                      {"word":"ATLANTA",
                      "row":5,
                      "col":3,
                      "h":0,
                      "v":1},
                      {"word":"SEATTLE",
                      "row":1,
                      "col":6,
                      "h":0,
                      "v":1},
                      {"word":"WESTCOTT",
                      "row":0,
                      "col":8,
                      "h":0,
                      "v":1},
                      {"word":"CRISPIN",
                      "row":0,
                      "col":6,
                      "h":-1,
                      "v":0},
                      {"word":"TRIPLEJAM",
                      "row":8,
                      "col":9,
                      "h":0,
                      "v":-1},
                      {"word":"WOLFFER",
                      "row":2,
                      "col":1,
                      "h":1,
                      "v":0}
                     ]}
