{"rows":9,"cols":10,
    "words":["COCACOLA","LAVAZZA","POWERADE","COKE","PEPPER","SPRITE","FANTA","PEPSI"],
    "boardCharacters":[
                       ["P","D","I","I","Q","T","Z","T","N","H"],
                       ["A","Z","E","R","E","P","P","E","P","O"],
                       ["Z","W","L","K","J","H","E","V","C","E"],
                       ["Z","T","W","V","O","I","F","P","D","E"],
                       ["A","L","O","C","A","C","O","C","S","T"],
                       ["V","F","A","N","T","A","I","L","T","I"],
                       ["A","V","O","B","C","A","O","B","F","R"],
                       ["L","Z","E","D","A","R","E","W","O","P"],
                       ["D","R","L","F","K","Q","S","H","S","S"]
                       ],
    "wordPlacements":[{"word":"COCACOLA",
                      "row":4,
                      "col":7,
                      "h":-1,
                      "v":0},
                      {"word":"LAVAZZA",
                      "row":7,
                      "col":0,
                      "h":0,
                      "v":-1},
                      {"word":"POWERADE",
                      "row":7,
                      "col":9,
                      "h":-1,
                      "v":0},
                      {"word":"COKE",
                      "row":4,
                      "col":5,
                      "h":-1,
                      "v":-1},
                      {"word":"PEPPER",
                      "row":1,
                      "col":8,
                      "h":-1,
                      "v":0},
                      {"word":"SPRITE",
                      "row":8,
                      "col":9,
                      "h":0,
                      "v":-1},
                      {"word":"FANTA",
                      "row":5,
                      "col":1,
                      "h":1,
                      "v":0},
                      {"word":"PEPSI",
                      "row":1,
                      "col":5,
                      "h":1,
                      "v":1}
                    ]}
