{"rows":6,"cols":6,
"words":["ATOLL","BASIN","CANAL","FLOE","RUIN","SEA","SKY","TREE"],

"boardCharacters":[
["F","J","Z","J","A","A"],
["E","L","A","N","A","C"],
["E","L","O","S","R","U"],
["R","O","Y","E","U","N"],
["T","T","K","A","I","U"],
["B","A","S","I","N","G"]
],

"wordPlacements":
[{"word":"ATOLL","row":5,"col":1,"h":0,"v":-1},
{"word":"BASIN","row":5,"col":0,"h":1,"v":0},
{"word":"CANAL","row":1,"col":5,"h":-1,"v":0},
{"word":"FLOE","row":0,"col":0,"h":1,"v":1},
{"word":"RUIN","row":2,"col":4,"h":0,"v":1},
{"word":"SEA","row":2,"col":3,"h":0,"v":1},
{"word":"SKY","row":5,"col":2,"h":0,"v":-1},
{"word":"TREE","row":4,"col":0,"h":0,"v":-1}]}

