{"rows":9,"cols":9,
    "words":["AUTUMN","BURROW","CHANNEL","CONCAVE","DEEPEN","EXHUME","HARVEST","PRODUCE","RAISE","SHOVEL"],
    "boardCharacters":[["R","A","I","S","E","P","H","A","X"],
                       ["B","U","R","R","O","W","A","P","Z"],
                       ["E","E","V","G","S","T","R","A","R"],
                       ["S","X","V","D","A","O","V","U","N"],
                       ["H","Z","H","A","D","M","E","T","E"],
                       ["O","K","P","U","C","C","S","U","P"],
                       ["V","R","C","H","M","N","T","M","E"],
                       ["E","E","D","P","V","E","O","N","E"],
                       ["L","E","N","N","A","H","C","C","D"]],
    
    "wordPlacements":[{"word":"AUTUMN","row":7,"col":7,"h":0,"v":1},
                      {"word":"BURROW","row":1,"col":0,"h":1,"v":0},
                      {"word":"CHANNEL","row":6,"col":6,"h":-1,"v":0},
                      {"word":"CONCAVE","row":8,"col":7,"h":-1,"v":-1},
                      {"word":"DEEPEN","row":8,"col":8,"h":0,"v":-1},
                      {"word":"EXHUME","row":2,"col":0,"h":1,"v":1},
                      {"word":"HARVEST","row":6,"col":0,"h":0,"v":1},
                      {"word":"PRODUCE","row":1,"col":7,"h":-1,"v":1},
                      {"word":"RAISE","row":0,"col":0,"h":1,"v":0},
                      {"word":"SHOVEL","row":3,"col":0,"h":0,"v":1}
                      ]}








































































































