{"rows":8,"cols":9,"words":
    ["DEFENDER","DIVE","DRAW","FOUL","HANDBALL","PITCH","STRIKER"],
    "boardCharacters":[["G","K","A","Q","D","P","R","D","H"],
                       ["Y","M","D","G","I","X","E","G","A"],
                       ["Y","N","Q","T","W","F","K","U","N"],
                       ["R","K","C","C","E","L","I","G","D"],
                       ["W","H","V","N","L","U","R","J","B"],
                       ["S","A","D","X","I","O","T","F","A"],
                       ["X","E","R","L","G","F","S","H","L"],
                       ["R","T","V","D","E","V","I","D","L"]
                       ],
    "wordPlacements":[
                      {"word":"DEFENDER","row":0,"col":7,"h":-1,"v":1},
                      {"word":"DIVE","row":7,"col":7,"h":-1,"v":0},
                      {"word":"DRAW","row":7,"col":3,"h":-1,"v":-1},
                      {"word":"FOUL","row":6,"col":5,"h":0,"v":-1},
                      {"word":"HANDBALL","row":0,"col":8,"h":0,"v":1},
                      {"word":"PITCH","row":0,"col":5,"h":-1,"v":1},
                      {"word":"STRIKER","row":6,"col":6,"h":0,"v":-1}
                   ]
}
