{"rows":7,"cols":8,
    "words":["ACE","DEUCE","NET","RALLY","SERVE","FAULT","RECEIVER"],
    
    "boardCharacters":[
                       ["M","K","K","T","D","M","Y","S"],
                       ["X","D","Q","E","D","L","R","E"],
                       ["T","C","U","N","L","G","Y","R"],
                       ["M","C","K","A","T","X","L","V"],
                       ["E","E","R","Q","E","C","J","E"],
                       ["R","E","C","E","I","V","E","R"],
                       ["T","L","U","A","F","S","L","L"]
                       ],
    "wordPlacements":[{"word":"ACE","row":6,"col":3,"h":-1,"v":-1},
                      {"word":"DEUCE","row":0,"col":4,"h":-1,"v":1},
                      {"word":"NET","row":2,"col":3,"h":0,"v":-1},
                      {"word":"RALLY","row":4,"col":2,"h":1,"v":-1},
                      {"word":"SERVE","row":0,"col":7,"h":0,"v":1},
                      {"word":"FAULT","row":6,"col":4,"h":-1,"v":0},
                      {"word":"RECEIVER","row":5,"col":0,"h":1,"v":0}
                      ]}
