{"rows":8,"cols":9,
    "words":["BAILS","BOUNDARY","BOWL","CATCH","CENTURY","OVER"],
    "boardCharacters":[
                       ["L","Z","V","P","Y","Y","Z","K","O"],
                       ["S","L","I","A","B","R","O","V","S"],
                       ["Q","I","H","L","C","A","T","C","H"],
                       ["C","N","W","U","M","D","O","E","M"],
                       ["I","O","D","A","H","N","S","J","O"],
                       ["B","C","E","N","T","U","R","Y","V" ],
                       ["N","P","W","Z","C","O","G","W","E" ],
                       ["Y","R","W","N","H","B","S","Y","R" ]
                       ],
    "wordPlacements":[{"word":"BAILS","row":1,"col":4,"h":-1,"v":0},
                      {"word":"BOUNDARY","row":7,"col":5,"h":0,"v":-1},
                      {"word":"BOWL","row":5,"col":0,"h":1,"v":-1},
                      {"word":"CATCH","row":2,"col":4,"h":1,"v":0},
                      {"word":"CENTURY","row":5,"col":1,"h":1,"v":0},
                      {"word":"OVER","row":4,"col":8,"h":0,"v":1},
                     ]}
