{"rows":8,"cols":8,
"words":["EMBRYO","FIELD","GROW","MATURE","POTASH","ROUGH","SALT","STARCH","TESTA"],

"boardCharacters":[
["Q","H","S","U","D","Z","M","V"],
["P","C","C","L","V","A","Z","Q"],
["J","O","E","R","T","G","T","A"],
["W","I","T","U","A","R","L","T"],
["F","O","R","A","O","T","A","S"],
["T","E","R","U","S","B","S","E"],
["E","B","G","G","O","H","J","T"],
["A","H","O","Y","R","B","M","E"]
],

"wordPlacements":
[{"word":"EMBRYO","row":7,"col":7,"h":-1,"v":0},
{"word":"FIELD","row":4,"col":0,"h":1,"v":-1},
{"word":"GROW","row":6,"col":3,"h":-1,"v":-1},
{"word":"MATURE","row":0,"col":6,"h":-1,"v":1},
{"word":"POTASHS","row":1,"col":0,"h":1,"v":1},
{"word":"ROUGH","row":3,"col":5,"h":-1,"v":1},
{"word":"SALT","row":5,"col":6,"h":0,"v":-1},
{"word":"STARCH","row":5,"col":6,"h":-1,"v":-1},
{"word":"TESTA","row":6,"col":7,"h":0,"v":-1}]}