{"rows":7,"cols":7,
"words":["COLD","EDIBLE","GOUT","IRON","JUICE","MILK","SANDY"],

"boardCharacters":[
["E","Y","W","M","F","F","H"],
["D","K","D","J","I","Y","Q"],
["I","R","O","N","T","L","J"],
["B","Q","L","U","A","U","K"],
["L","X","O","T","I","S","A"],
["E","G","X","C","K","B","E"],
["Q","H","E","D","L","O","C"]
],

"wordPlacements":
[{"word":"COLD","row":6,"col":6,"h":-1,"v":0},
{"word":"EDIBLE","row":0,"col":0,"h":0,"v":1},
{"word":"GOUT","row":5,"col":1,"h":1,"v":-1},
{"word":"IRON","row":2,"col":0,"h":1,"v":0},
{"word":"JUICE","row":2,"col":6,"h":-1,"v":1},
{"word":"MILK","row":0,"col":3,"h":1,"v":1},
{"word":"SANDY","row":4,"col":5,"h":-1,"v":-1}]}