{"rows":6,"cols":6,"words":["DECK","GAMES","GRASS","HAT","HEAT","PLAY","SAND","TOYS"],
"boardCharacters":[
["D","H","L","I","S","P"],
["E","A","E","S","L","S"],
["C","T","A","A","D","Y"],
["K","R","Y","J","T","O"],
["G","A","M","E","S","T"],
["R","A","D","N","A","S"]
],

"wordPlacements":[
{"word":"DECK","row":0,"col":0,"h":0,"v":1},
{"word":"GAMES","row":4,"col":0,"h":1,"v":0},
{"word":"GRASS","row":4,"col":0,"h":1,"v":-1},
{"word":"HAT","row":0,"col":1,"h":0,"v":1},
{"word":"HEAT","row":0,"col":1,"h":1,"v":1},
{"word":"PLAY","row":0,"col":5,"h":-1,"v":1},
{"word":"SAND","row":5,"col":5,"h":-1,"v":0},
{"word":"TOYS","row":4,"col":5,"h":0,"v":-1}]}







































