{"rows":11,"cols":11,"words":["COCONUT","HUMIDITY","LEMON","SUNSCREEN","SURFBOARD","UMBRELLA","WATERPARK"],
"boardCharacters":[
["S","T","H","M","Z","V","L","I","H","S","X"], 
["J","U","U","E","K","F","U","J","U","B","G"], 
["R","E","R","N","M","D","N","N","M","F","S"], 
["W","R","C","F","O","Z","S","X","I","C","A"], 
["E","W","T","M","B","C","B","Q","D","F","N"], 
["X","T","E","B","R","O","O","V","I","S","O"], 
["P","F","P","E","Q","D","A","C","T","R","M"], 
["A","W","E","M","V","B","Q","R","Y","W","E"], 
["X","N","G","D","C","Y","R","B","D","C","L"], 
["K","R","A","P","R","E","T","A","W","X","B"], 
["Q","Z","U","M","B","R","E","L","L","A","R"]
],

"wordPlacements":[
{"word":"COCONUT","row":6,"col":7,"h":-1,"v":-1},
{"word":"HUMIDITY","row":0,"col":8,"h":0,"v":1},
{"word":"LEMON","row":8,"col":10,"h":0,"v":-1},
{"word":"SUNSCREEN","row":0,"col":9,"h":-1,"v":1},
{"word":"SURFBOARD","row":0,"col":0,"h":1,"v":1},
{"word":"UMBRELLA","row":10,"col":2,"h":1,"v":0},
{"word":"WATERPARK","row":9,"col":8,"h":-1,"v":0}]}














































