{"rows":8,"cols":8,"words":["ANNUAL","AUTUMN","CALENDAR","CENTURY","MAY","MORNING","SPRING","SUNSET","WINTER"],
"boardCharacters":[
["R","W","C","T","W","A","R","X"],
["A","N","J","E","I","N","M","S"],
["D","J","L","S","N","N","O","D"],
["N","C","E","N","T","U","R","Y"],
["E","Z","Z","U","E","A","N","A"],
["L","N","O","S","R","L","I","M"],
["A","A","U","T","U","M","N","V"],
["C","S","P","R","I","N","G","J"]
],
"wordPlacements":[
{"word":"ANNUAL","row":0,"col":5,"h":0,"v":1},
{"word":"AUTUMN","row":6,"col":1,"h":1,"v":0},
{"word":"CALENDAR","row":7,"col":0,"h":0,"v":-1},
{"word":"CENTURY","row":3,"col":1,"h":1,"v":0},
{"word":"MAY","row":5,"col":7,"h":0,"v":-1},
{"word":"MORNING","row":1,"col":6,"h":0,"v":1},
{"word":"SPRING","row":7,"col":1,"h":1,"v":0},
{"word":"SUNSET","row":5,"col":3,"h":0,"v":-1},
{"word":"WINTER","row":0,"col":4,"h":0,"v":1}]}


















