{"rows":9,"cols":9,"words":["COFFEE","DAIRY","DESSERT","FREEZE","PARFAIT","POPSICLE","SORBET","SUGAR","SYRUP","YOGURT"],
"boardCharacters":[
["P","U","R","Y","S","H","Z","Y","S"], 
["P","A","R","F","A","I","T","O","Y"], 
["C","O","S","U","G","A","R","Y","T"], 
["O","O","P","H","Y","B","E","O","Y"], 
["F","J","U","S","E","U","J","G","R"], 
["F","K","K","T","I","C","E","U","I"], 
["E","V","I","N","U","C","S","R","A"], 
["E","Z","E","E","R","F","L","T","D"], 
["D","E","S","S","E","R","T","E","U"] 
],
"wordPlacements":[
{"word":"COFFEE","row":2,"col":0,"h":0,"v":1},
{"word":"DAIRY","row":7,"col":8,"h":0,"v":-1},
{"word":"DESSERT","row":8,"col":0,"h":1,"v":0},
{"word":"FREEZE","row":7,"col":5,"h":-1,"v":0},
{"word":"PARFAIT","row":1,"col":0,"h":1,"v":0},
{"word":"POPSICLE","row":1,"col":0,"h":1,"v":1},
{"word":"SORBET","row":0,"col":8,"h":-1,"v":1},
{"word":"SUGAR","row":2,"col":2,"h":1,"v":0},
{"word":"SYRUP","row":0,"col":4,"h":-1,"v":0},
{"word":"YOGURT","row":2,"col":7,"h":0,"v":1}]}











































