{"rows":11,"cols":11,"words":["ALBUM","ARTIST","ATONAL","BASSIST","BEAT","BLUES","CONCERT","DRUMMER","EXCITING","HIT","MIKE","SOLO","SONG","TREND","TRIO"],
"boardCharacters":[
["D","T","Y","S","G","A","T","D","W","B","P"], 
["F","S","U","C","L","J","R","U","T","K","V"], 
["X","X","O","B","L","U","E","S","R","B","M"], 
["P","C","U","L","M","K","N","Y","E","M","I"], 
["U","M","K","M","O","H","D","A","C","Z","S"], 
["I","F","E","X","C","I","T","I","N","G","L"], 
["S","R","K","G","N","O","S","R","O","R","L"], 
["E","J","I","J","N","T","I","H","C","E","D"], 
["I","S","M","A","Q","E","T","R","Z","B","O"], 
["M","F","L","T","T","O","R","C","T","K","W"], 
["F","T","S","I","S","S","A","B","Z","N","O"]
],
"wordPlacements":[
{"word":"ALBUM","row":0,"col":5,"h":-1,"v":1},
{"word":"ARTIST","row":10,"col":6,"h":0,"v":-1},
{"word":"ATONAL","row":4,"col":7,"h":-1,"v":1},
{"word":"BASSIST","row":10,"col":7,"h":-1,"v":0},
{"word":"BEAT","row":2,"col":9,"h":-1,"v":1},
{"word":"BLUES","row":2,"col":3,"h":1,"v":0},
{"word":"CONCERT","row":7,"col":8,"h":0,"v":-1},
{"word":"DRUMMER","row":0,"col":7,"h":-1,"v":1},
{"word":"EXCITING","row":5,"col":2,"h":1,"v":0},
{"word":"HIT","row":7,"col":7,"h":-1,"v":0},
{"word":"MIKE","row":8,"col":2,"h":0,"v":-1},
{"word":"SOLO","row":1,"col":1,"h":1,"v":1},
{"word":"SONG","row":6,"col":6,"h":-1,"v":0},
{"word":"TREND","row":0,"col":6,"h":0,"v":1},
{"word":"TRIO","row":9,"col":7,"h":-1,"v":-1}]}






































