{"rows":8,"cols":7,
    "words":["BACHELOR","CHEF","NEXT","CHOPPED","VOICE","CIRCLE","MOLE","HILLS"],
    "boardCharacters":[["B","R","T","M","C","E","O"],
                       ["A","G","X","L","H","L","E"],
                       ["C","H","E","F","O","C","L"],
                       ["H","I","N","U","P","R","O"],
                       ["E","L","B","G","P","I","M"],
                       ["L","L","U","R","E","C","T"],
                       ["O","S","D","S","D","K","C"],
                       ["R","V","O","I","C","E","H"]],
    
    "wordPlacements":[{"word":"BACHELOR","row":0,"col":0,"h":0,"v":1},
                      {"word":"CHEF","row":2,"col":0,"h":1,"v":0},
                      {"word":"NEXT","row":3,"col":2,"h":0,"v":-1},
                      {"word":"CHOPPED","row":0,"col":4,"h":0,"v":1},
                      {"word":"VOICE","row":7,"col":1,"h":1,"v":0},
                      {"word":"CIRCLE","row":5,"col":5,"h":0,"v":-1},
                      {"word":"MOLE","row":4,"col":6,"h":0,"v":-1},
                      {"word":"HILLS","row":2,"col":1,"h":0,"v":1}
                      ]}
