{"rows":8,"cols":8,"words":["BREAK","BUNKER","CADDIE","CHIP","COURSE","DIVOT","DRIVER","EAGLE","FADE"],
"boardCharacters":[
["R","E","K","N","U","B","B","P"],
["R","V","I","I","C","R","C","I"],
["D","A","O","D","E","E","E","H"],
["R","S","G","A","D","S","A","C"],
["I","K","K","L","R","A","X","P"],
["V","H","E","U","E","W","C","P"],
["E","D","O","D","I","V","O","T"],
["R","C","E","D","A","F","F","D"]
],

"wordPlacements":[
{"word":"BREAK","row":0,"col":6,"h":-1,"v":1},
{"word":"BUNKER","row":0,"col":5,"h":-1,"v":0},
{"word":"CADDIE","row":5,"col":6,"h":-1,"v":-1},
{"word":"CHIP","row":3,"col":7,"h":0,"v":-1},
{"word":"COURSE","row":7,"col":1,"h":1,"v":-1},
{"word":"DIVOT","row":6,"col":3,"h":1,"v":0},
{"word":"DRIVER","row":2,"col":0,"h":0,"v":1},
{"word":"EAGLE","row":1,"col":0,"h":1,"v":1},
{"word":"FADE","row":7,"col":5,"h":-1,"v":0}]}







































