{"rows":12,"cols":12,
"words":["TANGO","RUMBA","LIMBO","THRILLER","HIPHOP","SALSA","MODERN","MAMBO","CALYPSO","BOLLYWOOD","DISCO","BALLROOM","ZUMBA","FOXTROT","MOONWALK"],

"boardCharacters":[
["S","H","N","I","V","A","F","A","C","G","I","K"],
["T","X","C","M","O","O","R","L","L","A","B","R"],
["W","A","S","B","X","K","P","M","R","O","C","E"],
["D","W","N","T","H","O","A","Z","M","Y","T","L"],
["S","I","R","G","H","R","A","B","A","Z","T","L"],
["M","O","S","P","O","U","O","B","M","I","L","I"],
["T","O","I","C","R","M","V","K","B","U","W","R"],
["M","H","D","X","O","B","V","X","O","B","Z","H"],
["A","C","D","E","J","A","S","A","L","S","A","T"],
["S","I","E","Z","R","O","S","P","Y","L","A","C"],
["Z","H","M","O","O","N","W","A","L","K","J","C"],
["B","O","L","L","Y","W","O","O","D","H","Z","I"]
],

"wordPlacements":
[{"word":"TANGO","row":1,"col":0,"h":1,"v":1},
{"word":"RUMBA","row":4,"col":5,"h":0,"v":1},
{"word":"LIMBO","row":5,"col":10,"h":-1,"v":0},
{"word":"THRILLER","row":8,"col":11,"h":0,"v":-1},
{"word":"HIPHOP","row":7,"col":1,"h":1,"v":-1},
{"word":"SALSA","row":8,"col":6,"h":1,"v":0},
{"word":"MODERN","row":5,"col":0,"h":1,"v":1},
{"word":"MAMBO","row":3,"col":8,"h":0,"v":1},
{"word":"CALYPSO","row":9,"col":11,"h":-1,"v":0},
{"word":"BOLLYWOOD","row":11,"col":0,"h":1,"v":0},
{"word":"DISCO","row":3,"col":0,"h":1,"v":1},
{"word":"BALLROOM","row":1,"col":10,"h":-1,"v":0},
{"word":"ZUMBA","row":7,"col":10,"h":-1,"v":-1},
{"word":"FOXTROT","row":0,"col":6,"h":-1,"v":1},
{"word":"MOONWALK","row":10,"col":2,"h":1,"v":0}]}