{"rows":8,"cols":8,
"words":["TEXT","RHYME","IRONY","MOOD","MORAL","MYTH","JARGON","DRAMA","LYRIC"],

"boardCharacters":[
["V","I","K","C","K","L","I","V"],
["D","R","A","M","A","Q","O","Y"],
["N","T","I","K","Y","L","B","N"],
["L","O","X","G","E","T","Q","O"],
["Y","H","G","E","M","Y","H","R"],
["R","R","Q","R","T","O","G","I"],
["I","G","E","L","A","R","O","M"],
["C","F","H","Q","U","J","T","D"]
],

"wordPlacements":
[{"word":"TEXT","row":5,"col":4,"h":-1,"v":-1},
{"word":"RHYME","row":4,"col":7,"h":-1,"v":0},
{"word":"IRONY","row":5,"col":7,"h":0,"v":-1},
{"word":"MOOD","row":4,"col":4,"h":1,"v":1},
{"word":"MORAL","row":6,"col":7,"h":-1,"v":0},
{"word":"MYTH","row":1,"col":3,"h":1,"v":1},
{"word":"JARGON","row":7,"col":5,"h":-1,"v":-1},
{"word":"DRAMA","row":1,"col":0,"h":1,"v":0},
{"word":"LYRIC","row":3,"col":0,"h":0,"v":1}]}