{"rows":8,"cols":8,
"words":["ABALONE","AVOCADO","COD","LOBSTER","OCTOPUS","PEANUTS","SNAILS"],

"boardCharacters":[
["F","S","T","U","N","A","E","P"],
["D","N","S","L","I","A","N","S"],
["W","L","A","Y","D","D","O","U"],
["R","E","T","S","B","O","L","P"],
["F","A","D","Z","Q","C","A","O"],
["K","V","J","B","W","A","B","T"],
["O","D","A","C","O","V","A","C"],
["H","N","Y","R","Q","M","U","O"]
],

"wordPlacements":
[{"word":"ABALONE","row":6,"col":6,"h":0,"v":-1},
{"word":"AVOCADO","row":6,"col":6,"h":-1,"v":0},
{"word":"COD","row":4,"col":5,"h":0,"v":-1},
{"word":"LOBSTER","row":3,"col":6,"h":-1,"v":0},
{"word":"OCTOPUS","row":7,"col":7,"h":0,"v":-1},
{"word":"PEANUTS","row":0,"col":7,"h":-1,"v":0},
{"word":"SNAILS","row":1,"col":7,"h":-1,"v":0}]}