{"rows":7,"cols":7,
"words":["DUMBO","KEY","KLAUS","LEFTY","MOSLEY","SARAH","SPYCIES","TRON"],

"boardCharacters":[
["S","K","S","T","F","A","V"],
["P","L","N","U","H","S","W"],
["Y","E","C","O","A","G","A"],
["C","F","U","Y","R","L","F"],
["I","T","V","Y","A","T","K"],
["E","Y","E","L","S","O","M"],
["S","K","O","B","M","U","D"]
],

"wordPlacements":
[{"word":"DUMBO","row":6,"col":6,"h":-1,"v":0},
{"word":"KEY","row":6,"col":1,"h":1,"v":-1},
{"word":"KLAUS","row":4,"col":6,"h":-1,"v":-1},
{"word":"LEFTY","row":1,"col":1,"h":0,"v":1},
{"word":"MOSLEY","row":5,"col":6,"h":-1,"v":0},
{"word":"SARAH","row":5,"col":4,"h":0,"v":-1},
{"word":"SPYCIES","row":0,"col":0,"h":0,"v":1},
{"word":"TRON","row":4,"col":5,"h":-1,"v":-1}]}