{"rows":7,"cols":7,
"words":["ARION","AWAY","EPIC","GREED","OSHIN","RATTY","SALAR","SZAFFI"],

"boardCharacters":[
["O","A","R","I","O","N","B"],
["W","S","Z","A","F","F","I"],
["D","K","H","N","L","R","V"],
["Y","E","P","I","C","A","U"],
["A","K","E","Q","N","T","S"],
["W","M","X","R","R","T","G"],
["A","E","T","I","G","Y","P"]
],

"wordPlacements":
[{"word":"ARION","row":0,"col":1,"h":1,"v":0},
{"word":"AWAY","row":6,"col":0,"h":0,"v":-1},
{"word":"EPIC","row":3,"col":1,"h":1,"v":0},
{"word":"GREED","row":6,"col":4,"h":-1,"v":-1},
{"word":"OSHIN","row":0,"col":0,"h":1,"v":1},
{"word":"RATTY","row":2,"col":5,"h":0,"v":1},
{"word":"SALAR","row":4,"col":6,"h":-1,"v":-1},
{"word":"SZAFFI","row":1,"col":1,"h":1,"v":0}]}