{"rows":11,"cols":11,
    "words":["ACTIVITY","CORPORATE","DEALERSHIP","DIVERSIFY","FRANCHISE","MIGRATION","PROFESSION","SPECIALIZE","VIREMENT"],
    "boardCharacters":[["C","M","A","E","O","Y","N","V","D","M","H"],
                       ["O","P","T","C","R","G","I","D","I","D","D"],
                       ["R","J","I","R","T","R","I","G","J","T","I"],
                       ["P","T","W","H","E","I","R","I","F","L","V"],
                       ["O","L","N","M","S","A","V","S","Z","I","E"],
                       ["R","Q","E","L","T","R","P","I","K","O","R"],
                       ["A","N","K","I","U","V","E","W","T","F","S"],
                       ["T","M","O","K","Y","C","N","L","L","Y","I"],
                       ["E","N","E","S","I","H","C","N","A","R","F"],
                       ["S","P","E","C","I","A","L","I","Z","E","Y"],
                       ["N","O","I","S","S","E","F","O","R","P","D"]],
    
    "wordPlacements":[{"word":"ACTIVITY","row":0,"col":2,"h":1,"v":1},
                      {"word":"CORPORATE","row":0,"col":0,"h":0,"v":1},
                      {"word":"DEALERSHIP","row":10,"col":10,"h":-1,"v":-1},
                      {"word":"DIVERSIFY","row":1,"col":10,"h":0,"v":1},
                      {"word":"FRANCHISE","row":8,"col":10,"h":-1,"v":0},
                      {"word":"MIGRATION","row":0,"col":9,"h":-1,"v":1},
                      {"word":"PROFESSION","row":10,"col":9,"h":-1,"v":0},
                      {"word":"SPECIALIZE","row":9,"col":0,"h":1,"v":0},
                      {"word":"VIREMENT","row":0,"col":7,"h":-1,"v":1}
                      ]}























































































































