{"rows":6,"cols":6,"words":
["BIZ","DEAL","MILL","POOL","SELL","SHOP","TASK"],

"boardCharacters":[
["M","T","B","I","Z","O"],
["L","I","M","A","P","F"],
["L","F","L","O","F","S"],
["E","B","O","L","D","H"],
["S","L","A","E","D","O"],
["M","K","S","A","T","P"]],


"wordPlacements":
[{"word":"BIZ","row":0,"col":2,"h":1,"v":0},
{"word":"DEAL","row":4,"col":4,"h":-1,"v":0},
{"word":"MILL","row":0,"col":0,"h":1,"v":1},
{"word":"POOL","row":1,"col":4,"h":-1,"v":1},
{"word":"SELL","row":4,"col":0,"h":0,"v":-1},
{"word":"SHOP","row":2,"col":5,"h":0,"v":1},
{"word":"TASK","row":5,"col":4,"h":-1,"v":0}]}






























































































