{"rows":9,"cols":9,"words":
["ACCOUNT","AGENT","BUDGET","COMPANY","CONCERN","HOUSE","LIMITED","MUTUAL","VENTURE"],

"boardCharacters":[
["B","C","O","M","P","A","N","Y","L"],
["U","L","O","T","N","E","G","A","I"],
["D","I","J","N","Z","D","U","V","A"],
["G","M","V","I","C","T","M","C","E"],
["E","I","B","K","U","E","C","S","D"],
["T","T","C","M","X","O","R","E","G"],
["V","E","N","T","U","R","E","N","A"],
["U","D","H","N","E","S","U","O","H"],
["O","W","T","R","V","A","J","A","O"]],


"wordPlacements":
[{"word":"ACCOUNT","row":2,"col":8,"h":-1,"v":1},
{"word":"AGENT","row":1,"col":7,"h":-1,"v":0},
{"word":"BUDGET","row":0,"col":0,"h":0,"v":1},
{"word":"COMPANY","row":0,"col":1,"h":1,"v":0},
{"word":"CONCERN","row":0,"col":1,"h":1,"v":1},
{"word":"HOUSE","row":7,"col":8,"h":-1,"v":0},
{"word":"LIMITED","row":1,"col":1,"h":0,"v":1},
{"word":"MUTUAL","row":5,"col":3,"h":1,"v":-1},
{"word":"VENTURE","row":6,"col":0,"h":1,"v":0}]}

















































































































