{"rows":7,"cols":7,"words":["BOAT","BUOY","COAST","HITS","ROLE","RUN","SAILOR","WIN"],

"boardCharacters":[
["R","O","L","I","A","S","T"],
["D","I","R","X","C","G","A"],
["R","O","L","E","C","O","O"],
["Y","Y","Y","O","X","S","B"],
["J","O","A","W","T","Y","R"],
["H","S","U","I","I","P","U"],
["T","S","H","B","P","N","N"]
],

"wordPlacements":
[{"word":"BOAT","row":3,"col":6,"h":0,"v":-1},
{"word":"BUOY","row":6,"col":3,"h":-1,"v":-1},
{"word":"COAST","row":2,"col":4,"h":-1,"v":1},
{"word":"HITS","row":6,"col":2,"h":1,"v":-1},
{"word":"ROLE","row":2,"col":0,"h":1,"v":0},
{"word":"RUN","row":4,"col":6,"h":0,"v":1},
{"word":"SAILOR","row":0,"col":5,"h":-1,"v":0},
{"word":"WIN","row":4,"col":3,"h":1,"v":1}]}