{"rows":8,"cols":8,
    "words":["BRANCH","LEACH","FOREST","PANDA","PULP","VALUE","LEAF","MOVE"],
    "boardCharacters":[["H","E","R","W","E","V","O","M"],
                       ["E","C","P","H","A","C","F","U"],
                       ["M","N","N","C","N","V","E","T"],
                       ["V","P","Z","A","L","U","S","S"],
                       ["A","A","U","E","R","E","L","A"],
                       ["L","O","A","L","R","B","E","R"],
                       ["U","F","K","O","P","T","B","R"],
                       ["E","L","F","P","A","N","D","A"]],
    
    "wordPlacements":[{"word":"BRANCH","row":5,"col":5,"h":-1,"v":-1},
                      {"word":"LEACH","row":5,"col":3,"h":0,"v":-1},
                      {"word":"FOREST","row":7,"col":2,"h":1,"v":-1},
                      {"word":"PANDA","row":7,"col":3,"h":1,"v":0},
                      {"word":"PULP","row":3,"col":1,"h":1,"v":1},
                      {"word":"VALUE","row":3,"col":0,"h":0,"v":1},
                      {"word":"LEAF","row":3,"col":4,"h":-1,"v":1},
                      {"word":"MOVE","row":0,"col":7,"h":-1,"v":0}
                      ]}
