{"rows":10,"cols":10,
    "words":["MILKYWAY","DISCOVER","PHYSICS","ALTITUDE","PLANET","BACTERIA","CATALYST","ENERGY","ANALOGUE","BASKET","FLOOR"],
    "boardCharacters":[["M","E","T","L","K","R","G","P","W","A"],
                       ["T","I","L","E","O","N","H","I","N","I"],
                       ["E","E","L","O","N","Y","N","A","D","R"],
                       ["K","N","L","K","S","A","L","S","I","E"],
                       ["S","F","E","I","Y","O","L","E","S","T"],
                       ["A","R","C","R","G","W","A","P","C","C"],
                       ["B","S","W","U","G","U","A","J","O","A"],
                       ["H","T","E","E","R","Y","O","Y","V","B"],
                       ["E","D","U","T","I","T","L","A","E","W"],
                       ["C","A","T","A","L","Y","S","T","R","W"]],
    
    "wordPlacements":[{"word":"MILKYWAY","row":0,"col":0,"h":1,"v":1},
                      {"word":"DISCOVER","row":2,"col":8,"h":0,"v":1},
                      {"word":"PHYSICS","row":0,"col":7,"h":-1,"v":1},
                      {"word":"ALTITUDE","row":8,"col":7,"h":-1,"v":0},
                      {"word":"PLANET","row":5,"col":7,"h":-1,"v":-1},
                      {"word":"BACTERIA","row":7,"col":9,"h":0,"v":-1},
                      {"word":"CATALYST","row":9,"col":0,"h":1,"v":0},
                      {"word":"ENERGY","row":2,"col":0,"h":1,"v":1},
                      {"word":"ANALOGUE","row":0,"col"9,"h":-1,"v":1},
                      {"word":"BASKET","row":6,"col"0,"h":0,"v":-1},
                      {"word":"FLOOR","row":4,"col":1,"h":1,"v":-1}]}
