{"rows":6,"cols":6,"words":["ARTIST","BAR","BEAT","BREAK","CHORD","MUSIC","ROCK"],
"boardCharacters":[
["Y","B","A","R","H","N"],
["D","R","O","H","C","Y"],
["O","C","I","S","U","M"],
["K","V","T","A","E","B"],
["K","A","E","R","B","A"],
["A","R","T","I","S","T"]],

"wordPlacements":[
{"word":"ARTIST","row":5,"col":0,"h":1,"v":0},
{"word":"BAR","row":0,"col":1,"h":1,"v":0},
{"word":"BEAT","row":3,"col":5,"h":-1,"v":0},
{"word":"BREAK","row":4,"col":4,"h":-1,"v":0},
{"word":"CHORD","row":1,"col":4,"h":-1,"v":0},
{"word":"MUSIC","row":2,"col":5,"h":-1,"v":0},
{"word":"ROCK","row":0,"col":3,"h":-1,"v":1}]}




























