{"rows":8,"cols":8,"words":["ACTION","BOOM","COSTUME","DIRECTOR","MAKEUP","PLAY","SET","SHINE","SHOW"],
"boardCharacters":[
["D","D","E","M","K","N","W","S"],
["P","I","M","B","O","C","H","Y"],
["U","R","U","I","T","O","K","A"],
["E","E","T","E","W","F","B","L"],
["K","C","S","M","N","L","T","P"],
["A","T","O","E","L","I","R","N"],
["M","O","C","A","I","L","H","Q"],
["E","R","R","E","E","M","N","S"]],

"wordPlacements":[
{"word":"ACTION","row":5,"col":0,"h":1,"v":-1},
{"word":"BOOM","row":3,"col":6,"h":-1,"v":-1},
{"word":"COSTUME","row":6,"col":2,"h":0,"v":-1},
{"word":"DIRECTOR","row":0,"col":1,"h":0,"v":1},
{"word":"MAKEUP","row":6,"col":0,"h":0,"v":-1},
{"word":"PLAY","row":4,"col":7,"h":0,"v":-1},
{"word":"SET","row":4,"col":2,"h":1,"v":-1},
{"word":"SHINE","row":7,"col":7,"h":-1,"v":-1},
{"word":"SHOW","row":0,"col":7,"h":-1,"v":1}]}

















































