{"rows":7,"cols":7,"words":["AXE","BEAR","ENEMY","FAIRY","FOREST","FROG","HERO","TOWER","WEAK"],
"boardCharacters":[
["E","X","A","D","R","E","F"],
["F","N","S","A","E","A","A"],
["Z","R","E","W","O","T","I"],
["K","B","O","M","L","S","R"],
["L","A","R","G","Y","W","Y"],
["T","S","E","R","O","F","R"],
["M","R","H","W","I","R","C"]
],
"wordPlacements":[
{"word":"AXE","row":0,"col":2,"h":-1,"v":0},
{"word":"BEAR","row":3,"col":1,"h":1,"v":-1},
{"word":"ENEMY","row":0,"col":0,"h":1,"v":1},
{"word":"FAIRY","row":0,"col":6,"h":0,"v":1},
{"word":"FOREST","row":5,"col":5,"h":-1,"v":0},
{"word":"FROG","row":1,"col":0,"h":1,"v":-1},
{"word":"HERO","row":6,"col":2,"h":0,"v":-1},
{"word":"TOWER","row":2,"col":5,"h":-1,"v":0},
{"word":"WEAK","row":6,"col":3,"h":-1,"v":-1}]}




















