{"rows":8,"cols":8,
"words":["BALEFUL","DIRE","DIREFUL","DOOMY","HALCYON","HUSHED","PACIFIC"],

"boardCharacters":[
["P","V","K","A","J","O","H","L"],
["G","P","D","J","U","A","U","U"],
["E","O","A","C","L","F","S","F"],
["E","H","F","C","E","C","H","E"],
["I","S","Y","L","I","R","E","R"],
["D","O","A","Y","T","F","D","I"],
["N","B","Q","D","E","R","I","D"],
["D","O","O","M","Y","Q","R","C"]
],

"wordPlacements":
[{"word":"BALEFUL","row":6,"col":1,"h":1,"v":-1},
{"word":"DIRE","row":6,"col":7,"h":-1,"v":0},
{"word":"DIREFUL","row":6,"col":7,"h":0,"v":-1},
{"word":"DOOMY","row":7,"col":0,"h":1,"v":0},
{"word":"HALCYON","row":0,"col":6,"h":-1,"v":1},
{"word":"HUSHED","row":0,"col":6,"h":0,"v":1},
{"word":"PACIFIC","row":1,"col":1,"h":1,"v":1}]}