{"rows":8,"cols":8,
"words":["BLITHE","BRIGHT","BUOYANT","CANTY","CHEERY","JOVIAL","SUNNY"],

"boardCharacters":[
["P","W","B","A","T","C","A","J"],
["Y","T","N","A","C","T","O","G"],
["N","N","J","N","K","V","C","E"],
["N","A","B","R","I","G","H","T"],
["U","Y","C","A","T","T","E","Q"],
["S","O","L","R","I","R","E","N"],
["P","U","L","L","N","G","R","I"],
["T","B","B","V","V","M","Y","D"]
],

"wordPlacements":
[{"word":"BLITHE","row":7,"col":2,"h":1,"v":-1},
{"word":"BRIGHT","row":3,"col":2,"h":1,"v":0},
{"word":"BUOYANT","row":7,"col":1,"h":0,"v":-1},
{"word":"CANTY","row":1,"col":4,"h":-1,"v":0},
{"word":"CHEERY","row":2,"col":6,"h":0,"v":1},
{"word":"JOVIAL","row":0,"col":7,"h":-1,"v":1},
{"word":"SUNNY","row":5,"col":0,"h":0,"v":-1}]}