{"rows":9,"cols":9,
"words":["HANDLING","HONOR","OBSTACLE","PICNIC","PRIZES","SYMBOL","TICKET","TRAINER","VICTORY"],

"boardCharacters":[
["U","L","S","T","I","C","K","E","T"],
["P","O","P","E","A","U","L","V","H"],
["I","B","Y","O","Z","C","J","A","V"],
["C","M","T","R","A","I","N","E","R"],
["N","Y","X","T","O","D","R","F","Y"],
["I","S","S","R","L","T","H","P","Q"],
["C","B","Q","I","Y","Z","C","A","E"],
["O","H","N","S","I","E","Q","I","X"],
["J","G","R","R","O","N","O","H","V"]
],

"wordPlacements":
[{"word":"HANDLING","row":1,"col":8,"h":-1,"v":1},
{"word":"HONOR","row":8,"col":7,"h":-1,"v":0},
{"word":"OBSTACLE","row":7,"col":0,"h":1,"v":-1},
{"word":"PICNIC","row":1,"col":0,"h":0,"v":1},
{"word":"PRIZES","row":5,"col":7,"h":-1,"v":-1},
{"word":"SYMBOL","row":5,"col":1,"h":0,"v":-1},
{"word":"TICKET","row":0,"col":3,"h":1,"v":0},
{"word":"TRAINER","row":3,"col":2,"h":1,"v":0},
{"word":"VICTORY","row":8,"col":8,"h":-1,"v":-1}]}