{"rows":10,"cols":10,
"words":["SIMULATE","EFFECTS","ACTION","SCENE","STUNTS","LIGHTING","ROLE","BREAK","CREW","CAMERA","PORTRAY"],

"boardCharacters":[
["R","P","Y","E","D","U","E","C","S","S"],
["B","O","M","F","N","F","R","P","I","T"],
["R","Y","L","R","F","E","V","N","M","N"],
["E","A","U","E","W","A","C","V","U","U"],
["A","R","C","K","O","L","L","S","L","T"],
["K","T","A","R","E","M","A","C","A","S"],
["S","R","Q","L","W","P","Q","M","T","I"],
["N","O","I","T","C","A","X","V","E","A"],
["U","P","L","I","G","H","T","I","N","G"],
["M","R","O","C","J","L","W","G","V","T"]
],

"wordPlacements":
[{"word":"SIMULATE","row":0,"col":8,"h":0,"v":1},
{"word":"EFFECTS","row":0,"col":6,"h":-1,"v":1},
{"word":"ACTION","row":7,"col":5,"h":-1,"v":0},
{"word":"SCENE","row":4,"col":7,"h":-1,"v":-1},
{"word":"STUNTS","row":5,"col":9,"h":0,"v":-1},
{"word":"LIGHTING","row":8,"col":2,"h":1,"v":0},
{"word":"ROLE","row":0,"col":0,"h":1,"v":1},
{"word":"BREAK","row":1,"col":0,"h":0,"v":1},
{"word":"CREW","row":0,"col":7,"h":-1,"v":1},
{"word":"CAMERA","row":5,"col":7,"h":-1,"v":0},
{"word":"PORTRAY","row":8,"col":1,"h":0,"v":-1}]}