{"rows":10,"cols":10,
"words":["ARGENTINA","BOLIVIA","BRAZIL","CHILE","COLOMBIA","ECUADOR","GUYANA","PARAGUAY","PERU","SURINAME","URUGUAY"],

"boardCharacters":[
["U","R","U","G","U","A","Y","U","G","A"],
["N","V","B","L","I","Z","A","R","B","R"],
["H","Q","A","N","A","Y","U","G","A","G"],
["Q","G","I","L","F","Q","G","S","Y","E"],
["B","U","B","X","S","W","A","U","C","N"],
["C","E","M","A","N","I","R","U","S","T"],
["W","L","O","M","Q","E","A","L","J","I"],
["V","I","L","R","P","D","P","K","U","N"],
["X","H","O","B","O","L","I","V","I","A"],
["B","C","C","R","X","F","K","U","O","O"]
],

"wordPlacements":
[{"word":"ARGENTINA","row":0,"col":9,"h":0,"v":1},
{"word":"BOLIVIA","row":8,"col":3,"h":1,"v":0},
{"word":"BRAZIL","row":1,"col":8,"h":-1,"v":0},
{"word":"CHILE","row":9,"col":1,"h":0,"v":-1},
{"word":"COLOMBIA","row":9,"col":2,"h":0,"v":-1},
{"word":"ECUADOR","row":3,"col":9,"h":-1,"v":1},
{"word":"GUYANA","row":2,"col":7,"h":-1,"v":0},
{"word":"PARAGUAY","row":7,"col":6,"h":0,"v":-1},
{"word":"PERU","row":7,"col":4,"h":1,"v":-1},
{"word":"SURINAME","row":5,"col":8,"h":-1,"v":0},
{"word":"URUGUAY","row":0,"col":0,"h":1,"v":0}]}