{"rows":7,"cols":7,
    "words":["ANXIETY","WRATH","SULLEN","CAMPUS","SURLY","TAUNT","SHOVE","BURN"],
    "boardCharacters":[["A","E","V","O","H","S","S"],
                       ["N","N","V","R","U","A","U"],
                       ["R","T","X","L","A","W","P"],
                       ["U","I","L","I","Y","R","M"],
                       ["B","E","W","P","E","A","A"],
                       ["N","T","N","U","A","T","C"],
                       ["S","U","R","L","Y","H","Y"]],
    
    "wordPlacements":[{"word":"ANXIETY","row":0,"col":0,"h":1,"v":1},
                      {"word":"WRATH","row":2,"col":5,"h":0,"v":1},
                      {"word":"SULLEN","row":0,"col":5,"h":-1,"v":1},
                      {"word":"CAMPUS","row":5,"col":6,"h":0,"v":-1},
                      {"word":"SURLY","row":6,"col":0,"h":1,"v":0},
                      {"word":"TAUNT","row":5,"col":5,"h":-1,"v":0},
                      {"word":"SHOVE","row":0,"col":5,"h":-1,"v":0},
                      {"word":"BURN","row":4,"col":0,"h":0,"v":-1}
                      ]}
