{"rows":8,"cols":9,"words":["BOTTLE","DRINKS","EXPENSE","FLAVOR","LIQUID","STRESS","SWIZZLE","TENURE"],

"boardCharacters":[
["D","R","I","N","K","S","E","D","S"],
["E","B","D","S","R","X","F","I","T"],
["V","L","T","S","P","G","L","U","R"],
["N","U","T","E","H","Z","A","Q","E"],
["M","G","N","T","N","P","V","I","S"],
["E","S","N","U","O","U","O","L","S"],
["E","S","G","N","W","B","R","M","D"],
["E","L","Z","Z","I","W","S","E","C"]
],

"wordPlacements":
[{"word":"BOTTLE","row":6,"col":5,"h":-1,"v":-1},
{"word":"DRINKS","row":0,"col":0,"h":1,"v":0},
{"word":"EXPENSE","row":0,"col":6,"h":-1,"v":1},
{"word":"FLAVOR","row":1,"col":6,"h":0,"v":1},
{"word":"LIQUID","row":5,"col":7,"h":0,"v":-1},
{"word":"STRESS","row":0,"col":8,"h":0,"v":1},
{"word":"SWIZZLE","row":7,"col":6,"h":-1,"v":0},
{"word":"TENURE","row":2,"col":2,"h":1,"v":1}]}