{"rows":9,"cols":9,"words":["COACH","DANGEROUS","EXECUTE","FOLLOWUP","FORGERY","PREDICT","RESCUE","SMOLDER","SPOTTER"],

"boardCharacters":[
["R","E","D","L","O","M","S","W","P"],
["X","O","P","R","E","D","I","C","T"],
["D","A","N","G","E","R","O","U","S"],
["C","O","A","C","H","S","Q","A","Q"],
["T","B","O","I","Y","C","C","F","F"],
["R","E","T","T","O","P","S","U","R"],
["C","Y","R","E","G","R","O","F","E"],
["R","F","O","L","L","O","W","U","P"],
["E","X","E","C","U","T","E","Q","Z"]
],

"wordPlacements":
[{"word":"COACH","row":3,"col":0,"h":1,"v":0},
{"word":"DANGEROUS","row":2,"col":0,"h":1,"v":0},
{"word":"EXECUTE","row":8,"col":0,"h":1,"v":0},
{"word":"FOLLOWUP","row":7,"col":1,"h":1,"v":0},
{"word":"FORGERY","row":6,"col":7,"h":-1,"v":0},
{"word":"PREDICT","row":1,"col":2,"h":1,"v":0},
{"word":"RESCUE","row":1,"col":3,"h":1,"v":1},
{"word":"SMOLDER","row":0,"col":6,"h":-1,"v":0},
{"word":"SPOTTER","row":5,"col":6,"h":-1,"v":0}]}