{"rows":9,"cols":10,
"words":["BATTERIES","BUCKET","COATRACK","HAMMER","MATTRESS","TOOLBOX","UMBRELLA","VACUUM"],

"boardCharacters":[
["A","L","L","E","R","B","M","U","B","K"],
["R","S","S","E","R","T","T","A","M","C"],
["F","E","P","T","S","D","T","P","X","A"],
["W","K","M","V","E","T","S","O","F","R"],
["J","Z","K","M","E","K","B","Q","V","T"],
["K","X","L","R","A","L","C","I","Y","A"],
["E","H","I","W","O","H","H","U","U","O"],
["B","E","B","O","W","D","Y","F","B","C"],
["S","X","T","V","A","C","U","U","M","U"]
],

"wordPlacements":
[{"word":"BATTERIES","row":0,"col":8,"h":-1,"v":1},
{"word":"BUCKET","row":7,"col":8,"h":-1,"v":-1},
{"word":"COATRACK","row":7,"col":9,"h":0,"v":-1},
{"word":"HAMMER","row":6,"col":5,"h":-1,"v":-1},
{"word":"MATTRESS","row":1,"col":8,"h":-1,"v":0},
{"word":"TOOLBOX","row":8,"col":2,"h":1,"v":-1},
{"word":"UMBRELLA","row":0,"col":7,"h":-1,"v":0},
{"word":"VACUUM","row":8,"col":3,"h":1,"v":0}]}