{"rows":9,"cols":9,"words":["ACTION","AERIAL"," BEESWAX","COLOUR","DIGITAL","DRYING","LEATHER","STROKES","TEXTURE"],
"boardCharacters":[
["K","D","E","N","V","Y","Y","E","B"], 
["J","I","L","F","O","U","X","G","E"], 
["R","G","N","E","N","I","N","U","E"], 
["U","I","S","P","A","I","T","J","S"], 
["O","T","A","O","Y","T","Y","C","W"], 
["L","A","I","R","E","A","H","U","A"], 
["O","L","D","R","D","P","M","E","X"], 
["C","T","E","X","T","U","R","E","R"], 
["C","S","E","K","O","R","T","S","I"] 

],
"wordPlacements":[
{"word":"ACTION","row":5,"col":8,"h":-1,"v":-1},
{"word":"AERIAL","row":5,"col":5,"h":-1,"v":0},
{"word":"BEESWAX","row":0,"col":8,"h":0,"v":1},
{"word":"COLOUR","row":7,"col":0,"h":0,"v":-1},
{"word":"DIGITAL","row":0,"col":1,"h":0,"v":1},
{"word":"DRYING","row":6,"col":2,"h":1,"v":-1},
{"word":"LEATHER","row":1,"col":2,"h":1,"v":1},
{"word":"STROKES","row":8,"col":7,"h":-1,"v":0},
{"word":"TEXTURE","row":7,"col":1,"h":1,"v":0}]}














































