{"rows":7,"cols":7,
    "words":["PRODUCT","BEARD","SALON","LOREAL","NAIL","TABOO"],
    "boardCharacters":[
                       ["N","T","D","H","G","L","Y"],
                       ["O","A","T","R","A","I","S"],
                       ["L","B","A","E","A","T","L"],
                       ["A","O","R","H","E","E","R"],
                       ["S","O","N","A","I","L","B"],
                       ["L","I","E","N","E","S","O"],
                       ["T","C","U","D","O","R","P"]
                       ],
    "wordPlacements":[{"word":"PRODUCT","row":6,"col":6,"h":-1,"v":0},
                      {"word":"BEARD","row":4,"col":6,"h":-1,"v":-1},
                      {"word":"SALON","row":4,"col":0,"h":0,"v":-1},
                      {"word":"LOREAL","row":5,"col":0,"h":1,"v":-1},
                      {"word":"NAIL","row":4,"col":2,"h":1,"v":0},
                      {"word":"TABOO","row":0,"col":1,"h":0,"v":1}
                      ]}
 
