{"rows":8,"cols":8,
  "words":["FASHION","BROWN","EYEWASH","FACIAL","BEAUTY","SWEAT"],
    "boardCharacters":[
                       ["E","H","P","N","H","O","W","N"],
                       ["L","A","S","U","W","A","C","W"],
                       ["D","R","K","I","O","O","A","F"],
                       ["L","A","I","C","A","F","R","E"],
                       ["N","O","I","H","S","A","F","B"],
                       ["E","Y","E","W","A","S","H","T"],
                       ["T","A","E","W","S","L","E","E"],
                       ["B","E","A","U","T","Y","D","V"]
                       ],
    "wordPlacements":[{"word":"FASHION","row":4,"col":6,"h":-1,"v":0},
                      {"word":"BROWN","row":4,"col":7,"h":-1,"v":-1},
                      {"word":"EYEWASH","row":5,"col":0,"h":1,"v":0},
                      {"word":"FACIAL","row":3,"col":5,"h":-1,"v":0},
                      {"word":"BEAUTY","row":7,"col":0,"h":1,"v":0},
                      {"word":"SWEAT","row":6,"col":4,"h":-1,"v":0}
                      ]}
