{"rows":9,"cols":9,
    "words":["NATIVE","LIVING","AQUATIC","HABITAT","ALIEN","SPORE","VIRUS","NITRATE","NAUSEA"],
    "boardCharacters":[["H","A","S","S","C","F","A","M","E"],
                       ["A","P","Q","R","U","A","C","V","T"],
                       ["B","O","O","U","I","R","I","I","A"],
                       ["I","C","V","E","A","T","I","S","R"],
                       ["T","O","N","E","A","T","A","V","T"],
                       ["A","S","E","N","R","M","I","U","I"],
                       ["T","E","R","O","P","S","I","C","N"],
                       ["N","A","U","S","E","A","O","C","V"],
                       ["N","U","L","I","V","I","N","G","W"]],
    
    "wordPlacements":[{"word":"NATIVE","row":5,"col":3,"h":1,"v":-1},
                      {"word":"LIVING","row":8,"col":2,"h":1,"v":0},
                      {"word":"AQUATIC","row":0,"col":1,"h":1,"v":1},
                      {"word":"HABITAT","row":0,"col":0,"h":0,"v":1},
                      {"word":"ALIEN","row":0,"col":6,"h":-1,"v":1},
                      {"word":"SPORE","row":6,"col":5,"h":-1,"v":0},
                      {"word":"VIRUS","row":4,"col":7,"h":-1,"v":-1},
                      {"word":"NITRATE","row":6,"col":8,"h":0,"v":-1},
                      {"word":"NAUSEA","row":7,"col":0,"h":1,"v":0}
                      ]}









