{"rows":7,"cols":7,
    "words":["EYE","CITY","SIGN","LOUD","HAIR","MITE","MOLD"],
    "boardCharacters":[["P","E","S","H","S","T","L"],
                       ["Y","U","A","I","L","A","O"],
                       ["C","I","T","Y","G","S","U"],
                       ["R","I","I","H","E","N","D"],
                       ["N","R","W","Y","L","U","L"],
                       ["N","F","E","T","I","M","O"],
                       ["E","M","A","H","S","E","M"]],
    
    "wordPlacements":[{"word":"EYE","row":5,"col":2,"h":1,"v":-1},
                      {"word":"CITY","row":2,"col":0,"h":1,"v":0},
                      {"word":"SIGN","row":0,"col":2,"h":1,"v":1},
                      {"word":"LOUD","row":0,"col":6,"h":0,"v":1},
                      {"word":"HAIR","row":0,"col":3,"h":-1,"v":1},
                      {"word":"MITE","row":5,"col":5,"h":-1,"v":0},
                      {"word":"MOLD","row":6,"col":6,"h":0,"v":-1}
                      ]}
