{"rows":9,"cols":9,"words":["BOARD","CAMERA","CIRCUIT","DISPLAY","HEATER","LAMP","MOTOR","MOUSE","PUMP","SHAVER"],

"boardCharacters":[
["R","C","P","E","I","U","G","U","L"],
["E","I","A","M","S","G","A","A","J"],
["V","R","Y","M","U","J","M","G","U"],
["A","C","A","Z","E","P","G","D","W"],
["H","U","L","R","O","R","R","A","R"],
["S","I","P","E","H","A","A","Y","M"],
["T","T","S","M","O","U","S","E","E"],
["V","G","I","B","R","O","T","O","M"],
["C","D","D","H","E","A","T","E","R"]
],

"wordPlacements":
[{"word":"BOARD","row":7,"col":3,"h":1,"v":-1},
{"word":"CAMERA","row":0,"col":1,"h":1,"v":1},
{"word":"CIRCUIT","row":0,"col":1,"h":0,"v":1},
{"word":"DISPLAY","row":8,"col":2,"h":0,"v":-1},
{"word":"HEATER","row":8,"col":3,"h":1,"v":0},
{"word":"LAMP","row":0,"col":8,"h":-1,"v":1},
{"word":"MOTOR","row":7,"col":8,"h":-1,"v":0},
{"word":"MOUSE","row":6,"col":3,"h":1,"v":0},
{"word":"PUMP","row":3,"col":5,"h":-1,"v":-1},
{"word":"SHAVER","row":5,"col":0,"h":0,"v":-1}]}