{"rows":9,"cols":9,"words":["APRON","CLOTH","CROSS","DOILY","EUROPE","FINERY","GLOVE","HOBBY","LADY","MESH","SILK","THIN"],
"boardCharacters":[
["E","C","R","O","S","S","N","O","P"], 
["A","P","U","E","D","O","I","L","Y"], 
["H","P","O","J","V","Y","H","T","F"], 
["S","O","R","R","H","O","T","C","I"], 
["E","E","V","O","U","H","L","L","N"], 
["M","X","B","K","N","E","A","G","E"], 
["Z","B","L","B","Y","D","J","S","R"], 
["Y","I","B","L","Y","N","W","E","Y"],
["S","H","T","O","L","C","N","O","K"]
],
"wordPlacements":[
{"word":"APRON","row":1,"col":0,"h":1,"v":1},
{"word":"CLOTH","row":8,"col":5,"h":-1,"v":0},
{"word":"CROSS","row":0,"col":1,"h":1,"v":0},
{"word":"DOILY","row":1,"col":4,"h":1,"v":0},
{"word":"EUROPE","row":5,"col":5,"h":-1,"v":-1},
{"word":"FINERY","row":2,"col":8,"h":0,"v":1},
{"word":"GLOVE","row":5,"col":7,"h":-1,"v":-1},
{"word":"HOBBY","row":3,"col":4,"h":-1,"v":1},
{"word":"LADY","row":4,"col":7,"h":-1,"v":1},
{"word":"MESH","row":5,"col":0,"h":0,"v":-1},
{"word":"SILK","row":8,"col":0,"h":1,"v":-1},
{"word":"THIN","row":3,"col":6,"h":0,"v":-1}]}














































