{"rows":7,"cols":7,
    "words":["ABJURE","STRIKE","AGITATE","WAIVER","RIFT","TENURE"],
    "boardCharacters":[
                       ["T","E","N","U","R","E","E"],
                       ["F","L","S","N","W","T","R"],
                       ["P","O","T","A","A","Q","U"],
                       ["F","J","R","T","I","S","J"],
                       ["T","F","I","R","V","W","B"],
                       ["P","G","K","D","E","H","A"],
                       ["A","Y","E","A","R","X","R"]
                       ],
  
    "wordPlacements":[{"word":"ABJURE",
                      "row":5,
                      "col":6,
                      "h":0,
                      "v":-1},
                      {"word":"STRIKE",
                      "row":1,
                      "col":2,
                      "h":0,
                      "v":1},
                      {"word":"AGITATE",
                      "row":6,
                      "col":0,
                      "h":1,
                      "v":-1},
                      {"word":"WAIVER",
                      "row":1,
                      "col":4,
                      "h":0,
                      "v":1},
                      {"word":"RIFT",
                      "row":4,
                      "col":3,
                      "h":-1,
                      "v":0},
                      {"word":"TENURE",
                      "row":0,
                      "col":0,
                      "h":1,
                      "v":0}
                      ]}
