{"rows":8,"cols":8,"words":["BEETLE","CRICKET","EARWIG","LOCUST","MAYFLY","SPIDER","TERMITE"],
"boardCharacters":[
["H","M","L","H","Y","B","Z","T"],
["D","A","Z","F","E","N","O","T"],
["M","Y","R","E","D","I","P","S"],
["U","F","T","I","A","U","H","A"],
["M","L","G","I","W","R","A","E"],
["E","Y","L","O","C","U","S","T"],
["E","T","I","M","R","E","T","Y"],
["C","R","I","C","K","E","Y","U"]],

"wordPlacements":[
{"word":"BEETLE","row":0,"col":5,"h":-1,"v":1},
{"word":"CRICKET","row":7,"col":0,"h":1,"v":0},
{"word":"EARWIG","row":4,"col":7,"h":-1,"v":0},
{"word":"LOCUST","row":5,"col":2,"h":1,"v":0},
{"word":"MAYFLY","row":0,"col":1,"h":0,"v":1},
{"word":"SPIDER","row":2,"col":7,"h":-1,"v":0},
{"word":"TERMITE","row":6,"col":6,"h":-1,"v":0}]}

























