{"rows":9,"cols":9,"words":["BRILLIANT","GENTLE","GULLIBLE","HELPFUL","LONELY","LOVING","LUCKY","SKILLFUL"],
    "boardCharacters":[["B","E","C","G","N","I","V","O","L"],
                       ["R","N","L","E","L","L","E","O","U"],
                       ["I","R","U","B","T","D","N","O","F"],
                       ["L","V","C","L","I","E","N","Z","P"],
                       ["L","S","K","I","L","L","F","U","L"],
                       ["I","Z","Y","Y","R","T","L","R","E"],
                       ["A","U","Z","Y","D","N","J","U","H"],
                       ["N","H","C","Z","L","E","M","I","G"],
                       ["T","C","F","B","Q","G","T","Q","O"]],
    
    "wordPlacements":[{"word":"BRILLIANT","row":0,"col":0,"h":0,"v":1},
                      {"word":"GENTLE","row":8,"col":5,"h":0,"v":-1},
                      {"word":"GULLIBLE","row":7,"col":8,"h":-1,"v":-1},
                      {"word":"HELPFUL","row":6,"col":8,"h":0,"v":-1},
                      {"word":"LONELY","row":0,"col":8,"h":-1,"v":1},
                      {"word":"LOVING","row":0,"col":8,"h":-1,"v":0},
                      {"word":"LUCKY","row":1,"col":2,"h":0,"v":1},
                      {"word":"SKILLFUL","row":4,"col":1,"h":1,"v":0}
                      ]}





















































































































