{"rows":8,"cols":9,
"words":["COCKATOO","EGGS","LIMESTONE","PENGUIN","SEAGULL","TERN"],

"boardCharacters":[
["L","I","H","N","Y","S","M","D","C"],
["L","D","U","P","D","P","F","O","E"],
["U","I","B","S","N","Y","C","N","B"],
["G","Q","G","I","J","K","A","N","P"],
["A","G","V","W","A","N","R","D","C"],
["E","N","O","T","S","E","M","I","L"],
["S","H","O","Y","T","S","N","K","G"],
["U","O","N","I","U","G","N","E","P"]
],

"wordPlacements":
[{"word":"COCKATOO","row":0,"col":8,"h":-1,"v":1},
{"word":"EGGS","row":5,"col":0,"h":1,"v":-1},
{"word":"LIMESTONE","row":5,"col":8,"h":-1,"v":0},
{"word":"PENGUIN","row":7,"col":8,"h":-1,"v":0},
{"word":"SEAGULL","row":6,"col":0,"h":0,"v":-1},
{"word":"TERN","row":6,"col":4,"h":1,"v":-1}]}