{"rows":8,"cols":8,"words":
["CERES","EARTH","ERIS","GAS","JUPITER","MARS","MOONS","RINGS","SATURN","SUN","VENUS"],
"boardCharacters":[
["S","R","E","T","I","P","U","J"],
["R","G","J","C","S","O","S","Z"],
["A","S","N","U","E","N","O","Q"],
["M","A","N","I","O","R","H","V"],
["Q","T","G","O","R","T","E","H"],
["N","U","M","E","R","I","S","S"],
["E","R","S","A","G","Z","H","B"],
["U","N","E","V","E","N","U","S"]
],

"wordPlacements":[
{"word":"CERES","row":1,"col":3,"h":1,"v":1},
{"word":"EARTH","row":7,"col":2,"h":1,"v":-1},
{"word":"ERIS","row":5,"col":3,"h":1,"v":0},
{"word":"GAS","row":6,"col":4,"h":-1,"v":0},
{"word":"JUPITER","row":0,"col":7,"h":-1,"v":0},
{"word":"MARS","row":3,"col":0,"h":0,"v":-1},
{"word":"MOONS","row":5,"col":2,"h":1,"v":-1},
{"word":"RINGS","row":4,"col":4,"h":-1,"v":-1},
{"word":"SATURN","row":2,"col":1,"h":0,"v":1},
{"word":"SUN","row":1,"col":4,"h":-1,"v":1},
{"word":"VENUS","row":7,"col":3,"h":1,"v":0}]}




   
































