{"rows":7,"cols":7,"words":
["BLADE","HALBERD","KNIFE","PIKE","RIFLE","SPEAR"],
"boardCharacters":[
["C","P","G","I","K","C","G"], 
["C","I","H","P","N","P","G"], 
["A","K","R","H","I","L","F"], 
["Y","E","S","A","F","T","Y"], 
["H","A","L","B","E","R","D"], 
["E","D","A","L","B","P","G"], 
["E","L","F","I","R","E","S"]  
],

"wordPlacements":[
{"word":"BLADE","row":5,"col":4,"h":-1,"v":0},
{"word":"HALBERD","row":4,"col":0,"h":1,"v":0},
{"word":"KNIFE","row":0,"col":4,"h":0,"v":1},
{"word":"PIKE","row":0,"col":1,"h":0,"v":1},
{"word":"RIFLE","row":6,"col":4,"h":-1,"v":0},
{"word":"SPEAR","row":6,"col":6,"h":-1,"v":-1}]}







































