{"rows":8,"cols":8,
    "words":["CABBAGE","SPINACH","GARLIC","SPICY","POT","CURRY","SOUP","TOMATO"],
    "boardCharacters":[
                       ["C","F","C","T","R","C","Y","T"],
                       ["A","I","O","U","E","A","C","O"],
                       ["T","P","L","N","T","B","I","M"],
                       ["C","U","R","R","Y","B","P","A"],
                       ["N","I","S","E","A","A","S","T"],
                       ["T","O","A","O","H","G","M","O"],
                       ["A","N","U","O","U","E","E","L"],
                       ["H","C","A","N","I","P","S","E"]
                       ],
    "wordPlacements":[{"word":"CABBAGE","row":0,"col":5,"h":0,"v":1},
                      {"word":"SPINACH","row":7,"col":6,"h":-1,"v":0},
                      {"word":"GARLIC","row":5,"col":5,"h":-1,"v":-1},
                      {"word":"SPICY","row":4,"col":6,"h":0,"v":-1},
                      {"word":"POT","row":2,"col":1,"h":1,"v":-1},
                      {"word":"CURRY","row":3,"col":0,"h":1,"v":0},
                      {"word":"SOUP","row":4,"col":2,"h":1,"v":1},
                      {"word":"TOMATO","row":0,"col":7,"h":0,"v":1}
                      ]}
