{"rows":9,"cols":9,"words":["AERIAL","BIRD","DIVE","FLIGHT","FOREST","LEAP","NOISY","PECK","SOUND","SPEED","TERN"],
"boardCharacters":[
["F","L","I","G","H","T","V","N","S"],
["H","V","T","T","N","L","G","R","O"],
["U","C","B","O","A","Y","I","E","U"],
["S","T","I","I","H","P","E","T","N"],
["Y","S","R","F","F","E","V","I","D"],
["Y","E","P","D","L","C","V","P","W"],
["A","R","R","E","R","K","G","A","D"],
["E","O","Q","B","E","I","U","E","B"],
["X","F","D","P","Z","D","B","L","L"]
],
"wordPlacements":[
{"word":"AERIAL","row":6,"col":0,"h":1,"v":-1},
{"word":"BIRD","row":8,"col":6,"h":-1,"v":-1},
{"word":"DIVE","row":4,"col":8,"h":-1,"v":0},
{"word":"FLIGHT","row":0,"col":0,"h":1,"v":0},
{"word":"FOREST","row":8,"col":1,"h":0,"v":-1},
{"word":"LEAP","row":8,"col":7,"h":0,"v":-1},
{"word":"NOISY","row":1,"col":4,"h":-1,"v":1},
{"word":"PECK","row":3,"col":5,"h":0,"v":1},
{"word":"SOUND","row":0,"col":8,"h":0,"v":1},
{"word":"SPEED","row":4,"col":1,"h":1,"v":1},
{"word":"TERN","row":4,"col":7,"h":0,"v":-1}]}


























