{"rows":9,"cols":9,"words":["CANARY","HOATZIN","HORNBILL","ROOSTER","SKYLARK","SWALLOW","TOUCANS","VULTURE"],
"boardCharacters":[
["Y","R","A","N","A","C","H","L","R"],
["S","N","A","C","U","O","T","L","O"],
["Z","W","D","U","A","Z","E","I","O"],
["K","A","A","T","M","R","H","B","S"],
["T","R","Z","L","U","R","X","N","T"],
["L","I","U","T","L","H","F","R","E"],
["N","G","L","X","P","O","M","O","R"],
["N","U","N","I","T","G","W","H","K"],
["V","S","K","Y","L","A","R","K","M"]
],
"wordPlacements":[
{"word":"CANARY","row":0,"col":5,"h":-1,"v":0},
{"word":"HOATZIN","row":0,"col":6,"h":-1,"v":1},
{"word":"HORNBILL","row":7,"col":7,"h":0,"v":-1},
{"word":"ROOSTER","row":0,"col":8,"h":0,"v":1},
{"word":"SKYLARK","row":8,"col":1,"h":1,"v":0},
{"word":"SWALLOW","row":1,"col":0,"h":1,"v":1},
{"word":"TOUCANS","row":1,"col":6,"h":-1,"v":0},
{"word":"VULTURE","row":8,"col":0,"h":1,"v":-1}]}






















