{"rows":11,"cols":11,"words":["CORMORANT","GUINEAFOWL","HUMMINGBIRD","KINGFISHER","NIGHTINGALE","WEAVERBIRD","WOODPECKER"],
"boardCharacters":[
["W","D","F","G","H","L","R","I","P","N","C"],
["E","P","N","H","U","W","E","I","T","I","O"],
["A","P","W","D","M","O","H","T","T","G","R"],
["V","L","Q","X","M","F","S","R","O","H","M"],
["E","N","G","L","I","A","I","T","W","T","O"],
["R","P","A","M","N","E","F","J","P","I","R"],
["B","U","U","A","G","N","G","Z","C","N","A"],
["I","V","K","F","B","I","N","K","X","G","N"],
["R","R","A","V","I","U","I","A","D","A","T"],
["D","E","S","S","R","G","K","U","Z","L","G"],
["Z","W","O","O","D","P","E","C","K","E","R"]
],
"wordPlacements":[
{"word":"CORMORANT","row":0,"col":10,"h":0,"v":1},
{"word":"GUINEAFOWL","row":9,"col":5,"h":0,"v":-1},
{"word":"HUMMINGBIRD","row":0,"col":4,"h":0,"v":1},
{"word":"KINGFISHER","row":9,"col":6,"h":0,"v":-1},
{"word":"NIGHTINGALE","row":0,"col":9,"h":0,"v":1},
{"word":"WEAVERBIRD","row":0,"col":0,"h":0,"v":1},
{"word":"WOODPECKER","row":10,"col":1,"h":1,"v":0}]}

























