{"rows":9,"cols":9,"words":["FLAMINGO","GOLDFINCH","KESTREL","MACAW","MAGPIE","SPARROW","STARLING"],
"boardCharacters":[
["W","W","N","N","E","E","L","Y","G"],
["K","A","O","X","Y","I","K","X","O"],
["J","E","C","R","R","P","N","W","L"],
["M","Y","S","A","R","G","C","T","D"],
["B","Y","T","T","M","A","B","I","F"],
["I","Q","Y","D","R","M","P","Z","I"],
["P","Q","W","V","R","E","Q","S","N"],
["O","G","N","I","M","A","L","F","C"],
["S","T","A","R","L","I","N","G","H"]
],
"wordPlacements":[
{"word":"FLAMINGO","row":7,"col":7,"h":-1,"v":0},
{"word":"GOLDFINCH","row":0,"col":8,"h":0,"v":1},
{"word":"KESTREL","row":1,"col":0,"h":1,"v":1},
{"word":"MACAW","row":5,"col":4,"h":-1,"v":-1},
{"word":"MAGPIE","row":5,"col":5,"h":0,"v":-1},
{"word":"SPARROW","row":6,"col":7,"h":-1,"v":-1},
{"word":"STARLING","row":8,"col":0,"h":1,"v":0}]}






















