{"rows":10,"cols":11,
    "words":["TWISTER","THUNDER","AIR","ALERT","WIND","TREMOR","SANDSTORM","CLOUD","FUNNEL","DUST"],
    "boardCharacters":[["S","A","N","D","S","T","O","R","M","W"],
                       ["M","L","E","N","N","U","F","E","S","M"],
                       ["S","R","T","D","U","I","R","R","I","A"],
                       ["P","D","V","E","U","W","W","O","R","E"],
                       ["E","U","T","W","I","S","T","E","R","K"],
                       ["R","O","M","E","R","T","D","T","A","A"],
                       ["D","L","R","E","D","N","U","H","T","L"],
                       ["N","C","G","T","U","U","R","C","E","E"],
                       ["I","T","I","H","T","B","S","J","C","R"],
                       ["H","R","T","G","E","B","E","T","C","T"]],
    
    "wordPlacements":[{"word":"TWISTER","row":4,"col":2,"h":1,"v":0},
                      {"word":"THUNDER","row":6,"col":8,"h":-1,"v":0},
                      {"word":"AIR","row":2,"col":9,"h":-1,"v":0},
                      {"word":"ALERT","row":5,"col":9,"h":0,"v":1},
                      {"word":"WIND","row":3,"col":6,"h":-1,"v":-1},
                      {"word":"TREMOR","row":5,"col":5,"h":-1,"v":0},
                      {"word":"SANDSTORM","row":0,"col":0,"h":1,"v":0},
                      {"word":"CLOUD","row":7,"col":1,"h":0,"v":-1},
                      {"word":"FUNNEL","row":1,"col":6,"h":-1,"v":0},
                      {"word":"DUST","row":6,"col":4,"h":1,"v":1}
                      ]}

















