{"rows":10,"cols":10,
    "words":["BEACH","CREST","OCEAN","SHORE","SPEED","SURGE","TIDES","WARNING","WAVELENGTH"],
    "boardCharacters":[["A","W","N","T","L","C","Y","E","B","W"],
                       ["M","A","D","I","C","E","G","E","S","M"],
                       ["S","R","T","D","U","R","R","V","B","D"],
                       ["P","N","V","E","U","W","E","O","B","E"],
                       ["E","I","C","S","R","L","E","I","H","K"],
                       ["E","N","P","I","E","S","R","T","A","S"],
                       ["D","G","U","N","N","A","E","C","O","O"],
                       ["N","S","G","T","S","E","R","C","E","R"],
                       ["I","T","I","O","T","B","N","J","C","W"],
                       ["H","R","A","G","E","B","E","A","C","H"]],
    
    "wordPlacements":[{"word":"BEACH","row":9,"col":5,"h":1,"v":0},
                      {"word":"CREST","row":7,"col":7,"h":-1,"v":0},
                      {"word":"OCEAN","row":6,"col":8,"h":-1,"v":0},
                      {"word":"SHORE","row":5,"col":9,"h":-1,"v":-1},
                      {"word":"SPEED","row":2,"col":0,"h":0,"v":1},
                      {"word":"SURGE","row":4,"col":3,"h":1,"v":-1},
                      {"word":"TIDES","row":0,"col":3,"h":0,"v":1},
                      {"word":"WARNING","row":0,"col":1,"h":0,"v":1},
                      {"word":"WAVELENGTH","row":0,"col":9,"h":-1,"v":1}
                      ]}
