{"rows":9,"cols":9,
"words":["BEATER","CABINET","CARAFE","NAPKIN","OPENER","PESTLE","RANGE","SHELVES","STEAMER","TIMER","TONGS"],

"boardCharacters":[
["C","R","E","M","I","T","J","R","C"],
["R","A","O","P","E","N","E","R","A"],
["E","L","B","J","R","T","A","S","R"],
["M","T","R","I","A","A","H","B","A"],
["A","T","Y","E","N","E","N","S","F"],
["E","O","B","W","L","E","M","G","E"],
["T","N","V","V","E","B","T","X","E"],
["S","G","E","N","I","K","P","A","N"],
["G","S","P","E","S","T","L","E","L"]
],

"wordPlacements":
[{"word":"BEATER","row":5,"col":2,"h":1,"v":-1},
{"word":"CABINET","row":0,"col":0,"h":1,"v":1},
{"word":"CARAFE","row":0,"col":8,"h":0,"v":1},
{"word":"NAPKIN","row":7,"col":8,"h":-1,"v":0},
{"word":"OPENER","row":1,"col":2,"h":1,"v":0},
{"word":"PESTLE","row":8,"col":2,"h":1,"v":0},
{"word":"RANGE","row":2,"col":4,"h":1,"v":1},
{"word":"SHELVES","row":2,"col":7,"h":-1,"v":1},
{"word":"STEAMER","row":7,"col":0,"h":0,"v":-1},
{"word":"TIMER","row":0,"col":5,"h":-1,"v":0},
{"word":"TONGS","row":4,"col":1,"h":0,"v":1}]}