{"rows":7,"cols":7,
"words":["GRILL","KNIFE","MOP","PLATE","SINK","SOAP","SPICES","TRAY","WHIP"],

"boardCharacters":[
["K","Y","C","D","K","G","Z"],
["S","N","A","N","C","P","W"],
["E","R","I","R","L","P","P"],
["C","S","M","F","T","I","L"],
["I","O","O","F","E","H","A"],
["P","A","O","S","V","W","T"],
["S","G","R","I","L","L","E"]
],

"wordPlacements":
[{"word":"GRILL","row":6,"col":1,"h":1,"v":0},
{"word":"KNIFE","row":0,"col":0,"h":1,"v":1},
{"word":"MOP","row":3,"col":2,"h":-1,"v":1},
{"word":"PLATE","row":2,"col":6,"h":0,"v":1},
{"word":"SINK","row":3,"col":1,"h":1,"v":-1},
{"word":"SOAP","row":5,"col":3,"h":-1,"v":0},
{"word":"SPICES","row":6,"col":0,"h":0,"v":-1},
{"word":"TRAY","row":3,"col":4,"h":-1,"v":-1},
{"word":"WHIP","row":5,"col":5,"h":0,"v":-1}]}