{"rows":9,"cols":9,"words":["BALANCE","COLOR","CONTENT","FORM","HUE","SHADE","TEXTURE","VALUE"],
"boardCharacters":[
["E","F","Y","G","R","Y","E","V","P"],
["O","U","O","O","T","Y","C","S","S"],
["Q","G","L","R","Q","O","N","H","Z"],
["G","O","H","A","M","J","A","A","J"],
["C","Q","U","L","V","D","L","I","W"],
["Z","V","E","E","E","S","A","T","Q"],
["V","B","F","R","A","O","B","P","K"],
["C","O","N","T","E","N","T","O","X"],
["E","R","U","T","X","T","T","K","G"]
],
"wordPlacements":[
{"word":"BALANCE","row":6,"col":6,"h":0,"v":-1},
{"word":"COLOR","row":4,"col":0,"h":1,"v":-1},
{"word":"CONTENT","row":7,"col":0,"h":1,"v":0},
{"word":"FORM","row":0,"col":1,"h":1,"v":1},
{"word":"HUE","row":3,"col":2,"h":0,"v":1},
{"word":"SHADE","row":1,"col":8,"h":-1,"v":1},
{"word":"TEXTURE","row":8,"col":6,"h":-1,"v":0},
{"word":"VALUE","row":4,"col":4,"h":-1,"v":-1}]}










































