{"rows":10,"cols":11,"words":["BLOG","BOXES","BUSINESS","DYNAMIC","FIXED","LIQUID","MAGAZINE","PERSONAL","PORTFOLIO","RESPONSIVE","STATIC"],

"boardCharacters":[
["S","R","S","S","E","N","I","S","U","B","B"],
["E","O","E","G","Q","T","H","H","T","C","B"],
["X","J","O","S","K","L","I","Q","U","I","D"],
["O","L","N","D","P","U","I","A","D","M","V"],
["B","V","V","J","C","O","V","E","U","A","Z"],
["S","T","A","T","I","C","N","V","O","N","Y"],
["F","I","X","E","D","D","V","S","S","Y","R"],
["E","N","I","Z","A","G","A","M","I","D","M"],
["O","I","L","O","F","T","R","O","P","V","G"],
["L","A","N","O","S","R","E","P","U","H","E"]],

"wordPlacements":
[{"word":"BLOG","row":4,"col":0,"h":1,"v":-1},
{"word":"BOXES","row":4,"col":0,"h":0,"v":-1},
{"word":"BUSINESS","row":0,"col":9,"h":-1,"v":0},
{"word":"DYNAMIC","row":7,"col":9,"h":0,"v":-1},
{"word":"FIXED","row":6,"col":0,"h":1,"v":0},
{"word":"LIQUID","row":2,"col":5,"h":1,"v":0},
{"word":"MAGAZINE","row":7,"col":7,"h":-1,"v":0},
{"word":"PERSONAL","row":9,"col":7,"h":-1,"v":0},
{"word":"PORTFOLIO","row":8,"col":8,"h":-1,"v":0},
{"word":"RESPONSIVE","row":0,"col":1,"h":1,"v":1},
{"word":"STATIC","row":5,"col":0,"h":1,"v":0}]}