{"rows":9,"cols":9,"words":["JAGUAR","KANGAROO","KOALA","LEOPARD","NARWHAL","ORANGUTAN","POLARBEAR","PORCUPINE"],
"boardCharacters":[
["O","O","R","A","G","N","A","K","U"],
["P","O","L","A","R","B","E","A","R"],
["L","E","O","P","A","R","D","M","B"],
["J","W","O","F","I","L","Z","R","D"],
["K","W","L","A","T","K","A","R","W"],
["E","N","I","P","U","C","R","O","P"],
["J","A","G","U","A","R","Q","N","K"],
["L","A","H","W","R","A","N","A","G"],
["N","A","T","U","G","N","A","R","O"]],

"wordPlacements":[
{"word":"JAGUAR","row":6,"col":0,"h":1,"v":0},
{"word":"KANGAROO","row":0,"col":7,"h":-1,"v":0},
{"word":"KOALA","row":6,"col":8,"h":-1,"v":-1},
{"word":"LEOPARD","row":2,"col":0,"h":1,"v":0},
{"word":"NARWHAL","row":7,"col":6,"h":-1,"v":0},
{"word":"ORANGUTAN","row":8,"col":8,"h":-1,"v":0},
{"word":"POLARBEAR","row":1,"col":0,"h":1,"v":0},
{"word":"PORCUPINE","row":5,"col":8,"h":-1,"v":0}]}



























































