{"rows":8,"cols":8,"words":["BANDIT","GANGSTER","GOON","PERP","SERPENT","SINNER","SNAKE","VIPER"],
"boardCharacters":[
["D","A","G","W","P","R","X","T"],
["S","N","A","K","E","A","W","T"],
["G","O","O","N","R","D","V","Z"],
["N","T","N","E","P","R","E","S"],
["X","I","P","T","F","I","F","P"],
["S","I","B","A","N","D","I","T"],
["V","S","D","T","U","Y","O","T"],
["G","A","N","G","S","T","E","R"]],

"wordPlacements":
[{"word":"BANDIT","row":5,"col":2,"h":1,"v":0},
{"word":"GANGSTER","row":7,"col":0,"h":1,"v":0},
{"word":"GOON","row":2,"col":0,"h":1,"v":0},
{"word":"PERP","row":0,"col":4,"h":0,"v":1},
{"word":"SERPENT","row":3,"col":7,"h":-1,"v":0},
{"word":"SINNER","row":5,"col":0,"h":1,"v":-1},
{"word":"SNAKE","row":1,"col":0,"h":1,"v":0},
{"word":"VIPER","row":6,"col":0,"h":1,"v":-1}]}




































