{"rows":8,"cols":9,"words":["BEHEMOTH","BESTIAL","CREATURE","DEVIL","FIEND","MONSTER"],
"boardCharacters":[
["I","H","V","Q","E","C","S","E"],
["O","T","Z","V","L","G","G","R"],
["L","O","R","I","M","K","H","U"],
["M","M","V","P","D","L","P","T"],
["R","E","T","S","N","O","M","A"],
["D","H","P","G","E","C","W","E"],
["B","E","S","T","I","A","L","R"],
["L","B","K","O","F","L","Z","C"],
["S","F","O","U","W","Y","G","K"]],

"wordPlacements":
[{"word":"BEHEMOTH","row":6,"col":1,"h":0,"v":-1},
{"word":"BESTIAL","row":5,"col":0,"h":1,"v":0},
{"word":"CREATURE","row":6,"col":8,"h":0,"v":-1},
{"word":"DEVIL","row":5,"col":0,"h":1,"v":-1},
{"word":"FIEND","row":6,"col":4,"h":0,"v":-1},
{"word":"MONSTER","row":4,"col":7,"h":-1,"v":0}]}



















































