{"rows":8,"cols":8,
    "words":["TENT","SHELTER","FACTION","GROUND","SUMMER","FIRE","STAY","HUNT","CABAL","JUNGLE"],
    "boardCharacters":[
                       ["S","F","C","H","R","M","E","Y"],
                       ["A","A","A","U","E","R","I","F"],
                       ["T","C","B","N","T","S","S","J"],
                       ["E","T","A","T","L","T","U","U"],
                       ["N","I","L","E","E","A","M","N"],
                       ["T","O","A","M","H","Y","M","G"],
                       ["A","N","U","O","S","M","E","L"],
                       ["G","R","O","U","N","D","R","E"]
                       ],
    "wordPlacements":[{"word":"TENT","row":0,"col":2,"h":0,"v":1},
                      {"word":"SHELTER","row":6,"col":4,"h":0,"v":-1},
                      {"word":"FACTION","row":0,"col":2,"h":0,"v":1},
                      {"word":"GROUND","row":6,"col":0,"h":1,"v":0},
                      {"word":"SUMMER","row":2,"col":5,"h":1,"v":0},
                      {"word":"FIRE","row":1,"col":7,"h":-1,"v":0},
                      {"word":"STAY","row":2,"col":5,"h":0,"v":1},
                      {"word":"HUNT","row":0,"col":3,"h":0,"v":1},
                      {"word":"CABAL","row":0,"col":2,"h":0,"v":1},
                      {"word":"JUNGLE","row":2,"col":7,"h":0,"v":1}
                      ]}









