{"rows":8,"cols":8,
    "words":["PEN","READ","SPELL","LETTER","PRINT","TEXT","DRAW","PAPER","SCRIPT","TYPE"],

    "boardCharacters":[
                       ["S","F","C","D","T","L","P","S"],
                       ["A","A","A","X","E","H","R","C"],
                       ["T","E","E","T","S","K","I","R"],
                       ["R","T","T","P","W","W","N","I"],
                       ["B","E","E","J","A","A","T","P"],
                       ["R","L","N","E","P","P","R","T"],
                       ["L","N","U","O","S","M","E","D"],
                       ["G","R","O","T","Y","P","E","R"]
                       ],
    "wordPlacements":[{"word":"PEN","row":5,"col":4,"h":-1,"v":0},
                      {"word":"READ","row":3,"col":0,"h":1,"v":-1},
                      {"word":"SPELL","row":2,"col":4,"h":-1,"v":1},
                      {"word":"LETTER","row":0,"col":5,"h":-1,"v":1},
                      {"word":"PRINT","row":0,"col":6,"h":0,"v":1},
                      {"word":"TEXT","row":3,"col":1,"h":1,"v":-1},
                      {"word":"DRAW","row":6,"col":7,"h":-1,"v":-1},
                      {"word":"PAPER","row":3,"col":3,"h":1,"v":1},
                      {"word":"SCRIPT","row":0,"col":7,"h":0,"v":1},
                      {"word":"TYPE","row":7,"col":3,"h":1,"v":0}
                      ]}
