{"rows":10,"cols":11,
"words":["CHAIRMAN","DIRECTOR","EXECUTIVE","MANAGER","PERSONNEL","PRESIDENT","PRODUCTION","RECEPTION","SALES","TERM"],

"boardCharacters":[
["L","Y","B","R","T","Z","A","G","D","E","R"],
["E","G","Z","E","E","I","E","I","X","E","T"],
["N","E","X","C","R","H","R","E","G","C","N"],
["N","F","T","E","M","E","C","A","S","H","E"],
["O","I","V","P","C","U","N","E","F","A","D"],
["S","V","K","T","T","A","L","J","R","I","I"],
["R","M","O","I","M","A","X","D","Q","R","S"],
["E","R","V","O","S","N","W","C","A","M","E"],
["P","E","G","N","I","J","Z","M","P","A","R"],
["P","R","O","D","U","C","T","I","O","N","P"]
],

"wordPlacements":
[{"word":"CHAIRMAN","row":2,"col":9,"h":0,"v":1},
{"word":"DIRECTOR","row":0,"col":8,"h":-1,"v":1},
{"word":"EXECUTIVE","row":0,"col":9,"h":-1,"v":1},
{"word":"MANAGER","row":6,"col":4,"h":1,"v":-1},
{"word":"PERSONNEL","row":8,"col":0,"h":0,"v":-1},
{"word":"PRESIDENT","row":9,"col":10,"h":0,"v":-1},
{"word":"PRODUCTION","row":9,"col":0,"h":1,"v":0},
{"word":"RECEPTION","row":0,"col":3,"h":0,"v":1},
{"word":"SALES","row":7,"col":4,"h":1,"v":-1},
{"word":"TERM","row":0,"col":4,"h":0,"v":1}]}