{"rows":9,"cols":9,"words":["ELEMENT","KISMET","MATTER","MELODY","NUMBER","PLACE","STATUS","THESIS","VENDIBLE"],
"boardCharacters":[
["M","M","Z","S","W","T","L","M","B"], 
["E","N","A","U","Q","N","H","R","S"], 
["L","U","P","T","H","E","G","I","T"], 
["O","M","L","A","T","M","S","V","E"], 
["D","B","A","T","H","E","H","L","M"], 
["Y","E","C","S","H","L","R","V","S"], 
["R","R","E","T","V","E","C","X","I"], 
["V","E","N","D","I","B","L","E","K"],
["B","R","O","T","C","A","F","J","H"]
],
"wordPlacements":[
{"word":"ELEMENT","row":6,"col":5,"h":0,"v":-1},
{"word":"KISMET","row":7,"col":8,"h":0,"v":-1},
{"word":"MATTER","row":0,"col":1,"h":1,"v":1},
{"word":"MELODY","row":0,"col":0,"h":0,"v":1},
{"word":"NUMBER","row":1,"col":1,"h":0,"v":1},
{"word":"PLACE","row":2,"col":2,"h":0,"v":1},
{"word":"STATUS","row":5,"col":3,"h":0,"v":-1},
{"word":"THESIS","row":6,"col":3,"h":1,"v":-1},
{"word":"VENDIBLE","row":7,"col":0,"h":1,"v":0}]}














































