{"rows":10,"cols":10,
     "words":["TURTLE","LIZARD","DINOSAUR","SNAKE","CROCODILE","ALLIGATOR","REPTILIAN","FROG"],
    "boardCharacters":[["N","T","A","R","B","E","T","R","E","R"],
                       ["A","A","L","M","L","N","H","O","L","O"],
                       ["I","E","T","T","D","D","O","D","I","T"],
                       ["L","N","R","E","R","I","K","P","D","A"],
                       ["I","U","L","E","A","N","O","S","O","G"],
                       ["T","L","E","D","Z","O","E","E","C","I"],
                       ["P","E","U","H","I","S","K","W","O","L"],
                       ["E","L","S","R","L","A","R","R","R","L"],
                       ["R","L","I","H","N","U","F","G","C","A"],
                       ["H","Y","R","S","F","R","O","G","C","S"]],
    
    "wordPlacements":[{"word":"TURTLE","row":5,"col":0,"h":1,"v":-1},
                      {"word":"LIZARD","row":7,"col":4,"h":0,"v":-1},
                      {"word":"DINOSAUR","row":2,"col":5,"h":0,"v":1},
                      {"word":"SNAKE","row":9,"col":3,"h":1,"v":-1},
                      {"word":"CROCODILE","row":8,"col":8,"h":0,"v":-1},
                      {"word":"ALLIGATOR","row":8,"col":9,"h":0,"v":-1},
                      {"word":"REPTILIAN","row":8,"col":0,"h":0,"v":-1},
                      {"word":"FROG","row":9,"col":4,"h":1,"v":0}
                      ]}
