{"rows":10,"cols":10,
"words":["GRAMMAR","IMAGERY","DIALOGUE","LANGUAGE","SYMBOLISM","CORPUS","REALISM","METAPHOR","POEM","METER"],

"boardCharacters":[
["R","R","E","E","Y","E","Y","D","H","U"],
["M","A","G","K","R","L","E","L","J","R"],
["S","R","M","G","E","H","S","A","G","E"],
["I","O","Z","M","G","W","K","N","U","A"],
["L","H","M","X","A","K","H","G","W","L"],
["O","P","E","F","M","R","O","U","N","I"],
["B","A","T","N","I","L","G","A","L","S"],
["M","T","E","V","A","J","C","G","W","M"],
["Y","E","R","I","C","P","O","E","M","P"],
["S","M","D","C","O","R","P","U","S","E"]
],

"wordPlacements":
[{"word":"GRAMMAR","row":6,"col":6,"h":-1,"v":-1},
{"word":"IMAGERY","row":6,"col":4,"h":0,"v":-1},
{"word":"DIALOGUE","row":9,"col":2,"h":1,"v":-1},
{"word":"LANGUAGE","row":1,"col":7,"h":0,"v":1},
{"word":"SYMBOLISM","row":9,"col":0,"h":0,"v":-1},
{"word":"CORPUS","row":9,"col":3,"h":1,"v":0},
{"word":"REALISM","row":1,"col":9,"h":0,"v":1},
{"word":"METAPHOR","row":9,"col":1,"h":0,"v":-1},
{"word":"POEM","row":8,"col":5,"h":1,"v":0},
{"word":"METER","row":4,"col":2,"h":0,"v":1}]}