{"rows":8,"cols":8,
"words":["FANTASY","EPISTLE","THEATRE","TEXT","HOMER","MEMOIR","TOPIC","PLOT"],

"boardCharacters":[
["T","J","O","T","P","F","E","Y"],
["Z","O","X","U","S","A","R","L"],
["A","E","L","P","M","N","T","M"],
["T","C","I","P","O","T","A","E"],
["H","O","M","E","R","A","E","M"],
["P","L","C","D","P","S","H","O"],
["P","V","U","B","I","Y","T","I"],
["E","L","T","S","I","P","E","R"]
],

"wordPlacements":
[{"word":"FANTASY","row":0,"col":5,"h":0,"v":1},
{"word":"EPISTLE","row":7,"col":6,"h":-1,"v":0},
{"word":"THEATRE","row":6,"col":6,"h":0,"v":-1},
{"word":"TEXT","row":3,"col":0,"h":1,"v":-1},
{"word":"HOMER","row":4,"col":0,"h":1,"v":0},
{"word":"MEMOIR","row":2,"col":7,"h":0,"v":1},
{"word":"TOPIC","row":3,"col":5,"h":-1,"v":0},
{"word":"PLOT","row":3,"col":3,"h":-1,"v":-1}]}