{"rows":7,"cols":7,
"words":["HAIKU","EMOTIVE","POETRY","EPIC","STUDY","DRAMA","RHYME"],

"boardCharacters":[
["E","M","Y","H","R","E","P"],
["Y","C","M","L","D","V","O"],
["D","R","A","M","A","I","E"],
["U","K","I","A","H","T","T"],
["T","O","S","E","Q","O","R"],
["S","H","A","M","X","M","Y"],
["C","I","P","E","J","E","K"]
],

"wordPlacements":
[{"word":"HAIKU","row":3,"col":4,"h":-1,"v":0},
{"word":"EMOTIVE","row":6,"col":5,"h":0,"v":-1},
{"word":"POETRY","row":0,"col":6,"h":0,"v":1},
{"word":"EPIC","row":6,"col":3,"h":-1,"v":0},
{"word":"STUDY","row":5,"col":0,"h":0,"v":-1},
{"word":"DRAMA","row":2,"col":0,"h":1,"v":0},
{"word":"RHYME","row":0,"col":4,"h":-1,"v":0}]}

