{"rows":11,"cols":11,
"words":["KLIEGLIGHT","LANTERN","LIGHTBULB","LIGHTING","SPOTLIGHT","STREETLIGHT","SUNLAMP"],

"boardCharacters":[
["K","Y","C","O","M","A","Y","R","C","A","S"],
["S","L","J","L","J","E","I","P","V","G","T"],
["P","K","C","Q","I","V","T","N","B","S","R"],
["O","M","N","E","G","G","C","M","Y","I","E"],
["T","R","O","R","Z","D","H","T","M","R","E"],
["L","O","N","Y","E","E","T","T","B","M","T"],
["I","B","L","U","B","T","H","G","I","L","L"],
["G","X","P","M","A","L","N","U","S","N","I"],
["H","M","H","S","G","C","C","A","D","A","G"],
["T","H","G","I","L","G","E","I","L","K","H"],
["T","E","C","V","G","X","R","B","Y","H","T"]
],

"wordPlacements":
[{"word":"KLIEGLIGHT","row":9,"col":9,"h":-1,"v":0},
{"word":"LANTERN","row":9,"col":8,"h":-1,"v":-1},
{"word":"LIGHTBULB","row":6,"col":9,"h":-1,"v":0},
{"word":"LIGHTING","row":1,"col":3,"h":1,"v":1},
{"word":"SPOTLIGHT","row":1,"col":0,"h":0,"v":1},
{"word":"STREETLIGHT","row":0,"col":10,"h":0,"v":1},
{"word":"SUNLAMP","row":7,"col":8,"h":-1,"v":0}]}