{"rows":7,"cols":7,
"words":["FORCE","CAMP","ARMS","ATTACK","ACTION","FORT","ENEMY","ALLY","JEEP"],

"boardCharacters":[
["D","J","S","I","B","D","U"],
["J","N","I","M","F","R","K"],
["E","O","F","O","R","C","E"],
["E","I","R","K","A","A","N"],
["P","T","A","T","L","M","E"],
["I","C","T","L","Z","P","M"],
["Y","A","Y","I","O","G","Y"]
],

"wordPlacements":
[{"word":"FORCE","row":2,"col":2,"h":1,"v":0},
{"word":"CAMP","row":2,"col":5,"h":0,"v":1},
{"word":"ARMS","row":3,"col":5,"h":-1,"v":-1},
{"word":"ATTACK","row":6,"col":1,"h":1,"v":-1},
{"word":"ACTION","row":6,"col":1,"h":0,"v":-1},
{"word":"FORT","row":1,"col":4,"h":-1,"v":1},
{"word":"ENEMY","row":2,"col":6,"h":0,"v":1},
{"word":"ALLY","row":3,"col":5,"h":-1,"v":1},
{"word":"JEEP","row":1,"col":0,"h":0,"v":1}]}