{"rows":8,"cols":8,
   "words":["WIRELESS","PORTABLE","PRATICAL","GAME","TOUCH","ETHER","VISION","SCAN","MODERN"],
    "boardCharacters":[
                       ["P","R","A","T","I","C","A","L"],
                       ["V","O","R","X","I","U","M","U"],
                       ["W","I","R","E","L","E","S","S"],
                       ["G","I","S","T","H","T","N","C"],
                       ["H","A","S","I","A","T","D","A"],
                       ["R","C","M","L","O","B","E","N"],
                       ["M","O","D","E","R","N","L","D"],
                       ["H","C","U","O","T","V","V","E"]],
    
    "wordPlacements":[{"word":"WIRELESS","row":2,"col":0,"h":1,"v":0},
                      {"word":"PORTABLE","row":0,"col":0,"h":1,"v":1},
                      {"word":"PRATICAL","row":0,"col":0,"h":1,"v":0},
                      {"word":"GAME","row":3,"col":0,"h":1,"v":1},
                      {"word":"TOUCH","row":7,"col":4,"h":-1,"v":0},
                      {"word":"ETHER","row":5,"col":6,"h":-1,"v":-1},
                      {"word":"VISION","row":1,"col":0,"h":1,"v":1},
                      {"word":"SCAN","row":2,"col":7,"h":0,"v":1},
                      {"word":"MODERN","row":6,"col":0,"h":1,"v":0}
                      ]}
