{"rows":7,"cols":7,
     "words":["PARIS","NICE","LYON","LILLE","ROUEN","AMIENS"],
    "boardCharacters":[
                       ["P","N","K","I","P","R","P"],
                       ["N","E","N","A","E","R","A"],
                       ["G","O","R","E","C","I","N"],
                       ["E","I","Y","L","U","B","E"],
                       ["S","U","F","L","A","O","R"],
                       ["S","N","E","I","M","A","R"],
                       ["J","O","U","L","N","A","L"]
                       ],
    
    "wordPlacements":[{"word":"PARIS","row":0,"col":4,"h":-1,"v":0},
                      {"word":"NICE","row":2,"col":6,"h":-1,"v":0},
                      {"word":"LYON","row":4,"col":3,"h":-1,"v":-1},
                      {"word":"LILLE","row":6,"col":3,"h":0,"v":-1},
                      {"word":"ROUEN","row":5,"col":6,"h":-1,"v":-1},
                      {"word":"AMIENS","row":6,"col":6,"h":-1,"v":0}
                      ]}
