{"rows":8,"cols":8,
    "words":["SCHOOL","SCIENCE","WRITE","MUSIC","STUDY","BOOK","MATH","POUND"],
    "boardCharacters":[["C","E","D","N","Y","S","C","M"],
                       ["A","E","V","D","C","N","I","A"],
                       ["M","N","U","H","R","H","S","T"],
                       ["N","T","O","E","S","O","U","H"],
                       ["S","O","N","A","T","K","M","E"],
                       ["L","E","C","N","E","I","C","S"],
                       ["B","O","O","K","Y","T","R","I"],
                       ["H","S","D","N","U","O","P","W"]],
    
    "wordPlacements":[{"word":"SCHOOL","row":0,"col":5,"h":-1,"v":1},
                      {"word":"SCIENCE","row":5,"col":7,"h":-1,"v":0},
                      {"word":"WRITE","row":7,"col":7,"h":-1,"v":-1},
                      {"word":"MUSIC","row":4,"col":6,"h":0,"v":-1},
                      {"word":"STUDY","row":4,"col":0,"h":1,"v":-1},
                      {"word":"BOOK","row":6,"col":0,"h":1,"v":0},
                      {"word":"MATH","row":0,"col":7,"h":0,"v":1},
                      {"word":"POUND","row":7,"col":6,"h":-1,"v":0}
                      ]}
