{"rows":8,"cols":8,
    "words":["CELL","ART","GYM","READ","FLAG","BELIEF","STATE"],
    "boardCharacters":[["C","E","D","L","U","T","H","E"],
                       ["A","E","V","R","A","C","F","G"],
                       ["B","N","L","H","R","U","E","E"],
                       ["G","I","Z","L","T","G","I","G"],
                       ["N","A","A","N","Y","U","L","E"],
                       ["N","F","L","M","D","A","E","R"],
                       ["A","E","K","F","L","T","B","I"],
                       ["H","S","T","A","T","E","T","A"]],
    
    "wordPlacements":[{"word":"CELL","row":0,"col":0,"h":1,"v":1},
                      {"word":"ART","row":1,"col":4,"h":0,"v":1},
                      {"word":"GYM","row":3,"col":5,"h":-1,"v":1},
                      {"word":"READ","row":5,"col":7,"h":-1,"v":0},
                      {"word":"FLAG","row":6,"col":3,"h":-1,"v":-1},
                      {"word":"BELIEF","row":6,"col":6,"h":0,"v":-1},
                      {"word":"STATE","row":7,"col":1,"h":1,"v":0}
                      ]}
