{"rows":8,"cols":8,
"words":["AUCTION","BUSINESS","DEMAND","INDUSTRY","PRODUCE","PROMOTE","PURCHASE"],

"boardCharacters":[
["A","U","C","T","I","O","N","D"],
["Y","R","T","S","U","D","N","I"],
["P","U","R","C","H","A","S","E"],
["R","E","T","O","M","O","R","P"],
["R","A","N","E","M","P","V","J"],
["J","M","D","U","D","K","B","I"],
["B","U","S","I","N","E","S","S"],
["J","E","C","U","D","O","R","P"]
],

"wordPlacements":
[{"word":"AUCTION","row":0,"col":0,"h":1,"v":0},
{"word":"BUSINESS","row":6,"col":0,"h":1,"v":0},
{"word":"DEMAND","row":5,"col":2,"h":1,"v":-1},
{"word":"INDUSTRY","row":1,"col":7,"h":-1,"v":0},
{"word":"PRODUCE","row":7,"col":7,"h":-1,"v":0},
{"word":"PROMOTE","row":3,"col":7,"h":-1,"v":0},
{"word":"PURCHASE","row":2,"col":0,"h":1,"v":0}]}