{"rows":7,"cols":7,
"words":["ELK","KUSUM","MOOSE","OWLS","SEMUL","WASPS"],

"boardCharacters":[
["S","P","S","A","W","W","F"],
["M","M","L","K","I","V","W"],
["W","H","K","U","S","U","M"],
["M","O","O","S","E","L","K"],
["J","Z","L","R","M","F","O"],
["Z","W","C","D","U","T","H"],
["O","N","U","F","L","S","V"]
],

"wordPlacements":
[{"word":"ELK","row":3,"col":4,"h":1,"v":0},
{"word":"KUSUM","row":2,"col":2,"h":1,"v":0},
{"word":"MOOSE","row":3,"col":0,"h":1,"v":0},
{"word":"OWLS","row":6,"col":0,"h":1,"v":-1},
{"word":"SEMUL","row":2,"col":4,"h":0,"v":1},
{"word":"WASPS","row":0,"col":4,"h":-1,"v":0}]}