{"rows":9,"cols":9,"words":["STEINBECK","AUSTEN","CHEKHOV","DICKENS","HOMER","ORWELL","TOLKIEN","TOLSTOY"],
"boardCharacters":[
["K","H","T","U","E","L","M","N","A"], 
["V","C","Q","O","L","N","H","E","U"], 
["R","F","E","E","L","O","U","I","S"], 
["O","U","W","B","M","S","X","K","T"], 
["U","R","M","E","N","I","T","L","E"], 
["O","X","R","R","X","I","G","O","N"], 
["G","Q","T","Q","A","U","E","T","Y"], 
["D","I","C","K","E","N","S","T","R"], 
["V","O","H","K","E","H","C","V","S"]  
],
"wordPlacements":[
{"word":"STEINBECK","row":8,"col":8,"h":-1,"v":-1},
{"word":"AUSTEN","row":0,"col":8,"h":0,"v":1},
{"word":"CHEKHOV","row":8,"col":6,"h":-1,"v":0},
{"word":"DICKENS","row":7,"col":0,"h":1,"v":0},
{"word":"HOMER","row":1,"col":6,"h":-1,"v":1},
{"word":"ORWELL","row":5,"col":0,"h":1,"v":-1},
{"word":"TOLKIEN","row":6,"col":7,"h":0,"v":-1},
{"word":"TOLSTOY","row":0,"col":2,"h":1,"v":1}]}














































