{"rows":12,"cols":12,"words":["BLYTON","BRONTE","DOSTOEVSKY","HOSSEINI","MILOSZ","MORRISON","SHAKESPEARE","WORDSWORTH"],
"boardCharacters":[
["D","N","C","Y","A","Z","B","W","E","N","P","M"], 
["J","U","P","I","B","Q","F","O","H","S","I","C"],
["C","Q","Z","G","N","H","C","X","Y","L","I","B"], 
["O","F","P","P","P","I","K","N","O","B","I","N"], 
["N","Q","D","E","G","S","E","S","B","Z","K","O"], 
["F","B","K","G","T","K","Z","S","O","W","A","S"], 
["V","L","K","O","W","O","W","S","S","P","V","I"], 
["O","Y","K","U","X","T","V","Y","Z","O","R","R"], 
["H","T","R","O","W","S","D","R","O","W","H","R"], 
["D","O","S","T","O","E","V","S","K","Y","W","O"],
["D","N","E","T","N","O","R","B","J","F","B","M"],
["S","H","A","K","E","S","P","E","A","R","E","W"] 
],
"wordPlacements":[
{"word":"BLYTON","row":5,"col":1,"h":0,"v":1},
{"word":"BRONTE","row":10,"col":7,"h":-1,"v":0},
{"word":"DOSTOEVSKY","row":9,"col":0,"h":1,"v":0},
{"word":"HOSSEINI","row":8,"col":10,"h":-1,"v":-1},
{"word":"MILOSZ","row":0,"col":11,"h":-1,"v":1},
{"word":"MORRISON","row":10,"col":11,"h":0,"v":-1},
{"word":"SHAKESPEARE","row":11,"col":0,"h":1,"v":0},
{"word":"WORDSWORTH","row":8,"col":9,"h":-1,"v":0}]}













































