{"rows":8,"cols":8,"words":["COELHO","HUXLEY","KAFKA","MILLER","MILTON","POTTER","VERNE"],
"boardCharacters":[
["Q","B","Z","N","U","P","Q","U"], 
["O","H","L","E","O","C","G","H"], 
["M","R","K","T","T","U","H","R"], 
["V","I","T","V","E","R","N","E"], 
["Y","E","L","X","U","H","D","L"], 
["R","M","S","T","K","E","N","L"], 
["A","N","L","E","O","B","S","I"], 
["K","A","F","K","A","N","Q","M"]  
],
"wordPlacements":[
{"word":"COELHO","row":1,"col":5,"h":-1,"v":0},
{"word":"HUXLEY","row":4,"col":5,"h":-1,"v":0},
{"word":"KAFKA","row":7,"col":0,"h":1,"v":0},
{"word":"MILLER","row":7,"col":7,"h":0,"v":-1},
{"word":"MILTON","row":2,"col":0,"h":1,"v":1},
{"word":"POTTER","row":0,"col":5,"h":-1,"v":1},
{"word":"VERNE","row":3,"col":3,"h":1,"v":0}]}













































