{"rows":9,"cols":9,
    "words":["OVERCAST","PENINSULA","POPLAR","ROSE","OZONE","PETAL","PRISTINE","PAIL","PLAIN","RIVER"],
    "boardCharacters":[
                       ["T","P","R","I","S","T","I","N","E"],
                       ["F","S","N","I","A","L","P","S","K"],
                       ["I","D","A","F","J","A","E","R","A"],
                       ["R","X","S","C","I","T","T","E","T"],
                       ["A","I","Q","L","R","I","A","N","J"],
                       ["L","I","V","O","P","E","L","O","Q"],
                       ["P","K","S","E","L","M","V","Z","U"],
                       ["O","E","B","K","R","J","Z","O","U"],
                       ["P","E","N","I","N","S","U","L","A"]
                       ],
    "wordPlacements":[{"word":"OVERCAST",
                      "row":7,
                      "col":7,
                      "h":-1,
                      "v":-1},
                      {"word":"PENINSULA",
                      "row":8,
                      "col":0,
                      "h":1,
                      "v":0},
                      {"word":"POPLAR",
                      "row":8,
                      "col":0,
                      "h":0,
                      "v":-1},
                      {"word":"ROSE",
                      "row":4,
                      "col":4,
                      "h":-1,
                      "v":1},
                      {"word":"OZONE",
                      "row":7,
                      "col":7,
                      "h":0,
                      "v":-1},
                      {"word":"PETAL",
                      "row":1,
                      "col":6,
                      "h":0,
                      "v":1},
                      {"word":"PRISTINE",
                      "row":0,
                      "col":1,
                      "h":1,
                      "v":0},
                      {"word":"PAIL",
                      "row":1,
                      "col":6,
                      "h":-1,
                      "v":1},
                      {"word":"PLAIN",
                      "row":1,
                      "col":6,
                      "h":-1,
                      "v":0},
                      {"word":"RIVER",
                      "row":3,
                      "col":0,
                      "h":1,
                      "v":1}
                      ]}
