{"rows":9,"cols":9,
    "words":["SCARCE","SEED","STILL","STORMY","TSUNAMI","TWIG","STALK","THORN","VALLEY"],
    "boardCharacters":[
                       ["E","U","J","S","N","Z","N","K","Y"],
                       ["C","N","Q","Y","T","W","I","G","X"],
                       ["R","O","R","D","Y","O","W","M","V"],
                       ["A","U","E","O","M","L","R","M","Y"],
                       ["C","E","M","D","H","Z","S","M","N"],
                       ["S","T","I","L","L","T","I","Y","Y"],
                       ["T","S","U","N","A","M","Y","U","X"],
                       ["O","Y","E","L","L","A","V","G","C"],
                       ["Y","S","K","G","T","H","K","M","U"]
                       ],
    "wordPlacements":[{"word":"SCARCE",
                      "row":5,
                      "col":0,
                      "h":0,
                      "v":-1},
                      {"word":"SEED",
                      "row":5,
                      "col":0,
                      "h":1,
                      "v":-1},
                      {"word":"STILL",
                      "row":5,
                      "col":0,
                      "h":1,
                      "v":0},
                      {"word":"STORMY",
                      "row":0,
                      "col":3,
                      "h":1,
                      "v":1},
                      {"word":"TSUNAMI",
                      "row":6,
                      "col":0,
                      "h":1,
                      "v":0},
                      {"word":"TWIG",
                      "row":1,
                      "col":4,
                      "h":1,
                      "v":0},
                      {"word":"STALK",
                      "row":4,
                      "col":6,
                      "h":-1,
                      "v":1},
                      {"word":"THORN",
                      "row":5,
                      "col":5,
                      "h":-1,
                      "v":-1},
                      {"word":"VALLEY",
                      "row":7,
                      "col":6,
                      "h":-1,
                      "v":0}
                     ]}
