{"rows":8,"cols":8,"words":["ARMOR","BEAK","CHARGE","HORN","LARGE","PIERCE","SIZE","SKULL","TANK","DEFENSE","THREE"],
"boardCharacters":[
["T","D","C","H","A","R","G","E"], 
["A","L","E","K","O","U","C","F"], 
["N","L","U","F","A","R","W","L"], 
["K","T","H","R","E","E","N","A"], 
["J","G","M","I","Z","N","B","R"], 
["X","O","P","X","I","S","S","G"], 
["R","Z","O","K","S","P","F","E"], 
["S","K","U","L","L","W","S","F"]   
],
"wordPlacements":[
{"word":"ARMOR","row":2,"col":4,"h":-1,"v":1},
{"word":"BEAK","row":4,"col":6,"h":-1,"v":-1},
{"word":"CHARGE","row":0,"col":2,"h":1,"v":0},
{"word":"HORN","row":0,"col":3,"h":1,"v":1},
{"word":"LARGE","row":2,"col":7,"h":0,"v":1},
{"word":"PIERCE","row":5,"col":2,"h":1,"v":-1},
{"word":"SIZE","row":6,"col":4,"h":0,"v":-1},
{"word":"SKULL","row":7,"col":0,"h":1,"v":0},
{"word":"TANK","row":0,"col":0,"h":0,"v":1},
{"word":"DEFENSE","row":0,"col":1,"h":1,"v":1},
{"word":"THREE","row":3,"col":1,"h":1,"v":0}]}







































