{"rows":12,"cols":12,"words":["NATTO","ODEN","ONIGIRI","RAMEN","SASHIMI","SOBA","SUKIYAKI","SUSHI","TEMPURA","TOFU","UDON","UNAGI","WAGASHI","YAKITORI"],
"boardCharacters":[
["I","C","Z","I","T","I","S","M","A","O","N","T"], 
["R","J","B","S","O","R","U","O","I","A","A","T"], 
["I","Q","P","D","F","O","K","J","B","O","T","Z"], 
["G","H","E","P","N","T","I","U","E","A","T","W"], 
["I","N","S","O","J","I","Y","P","F","V","O","S"], 
["N","Q","D","U","K","K","A","X","S","O","A","H"], 
["O","U","R","W","S","A","K","P","I","S","T","Y"], 
["C","L","I","H","U","Y","I","D","H","T","C","M"], 
["T","E","M","P","U","R","A","I","C","L","L","G"], 
["N","E","M","A","R","N","M","I","G","A","N","U"], 
["H","S","Q","O","I","I","F","Z","V","Z","O","Q"], 
["Y","T","W","A","G","A","S","H","I","A","N","L"] 
],
"wordPlacements":[
{"word":"NATTO","row":0,"col":10,"h":0,"v":1},
{"word":"ODEN","row":1,"col":4,"h":-1,"v":1},
{"word":"ONIGIRI","row":6,"col":0,"h":0,"v":-1},
{"word":"RAMEN","row":9,"col":4,"h":-1,"v":0},
{"word":"SASHIMI","row":4,"col":11,"h":-1,"v":1},
{"word":"SOBA","row":0,"col":6,"h":1,"v":1},
{"word":"SUKIYAKI","row":0,"col":6,"h":0,"v":1},
{"word":"SUSHI","row":6,"col":4,"h":-1,"v":-1},
{"word":"TEMPURA","row":8,"col":0,"h":1,"v":0},
{"word":"TOFU","row":6,"col":10,"h":-1,"v":-1},
{"word":"UDON","row":6,"col":1,"h":1,"v":-1},
{"word":"UNAGI","row":9,"col":11,"h":-1,"v":0},
{"word":"WAGASHI","row":11,"col":2,"h":1,"v":0},
{"word":"YAKITORI","row":7,"col":5,"h":0,"v":-1}]}







































