{"rows":9,"cols":9,"words":["GENIUS","HORROR","LEGEND","MAGIC","MIRAGE","THEME","UNREAL","VISION"],
"boardCharacters":[
["V","G","S","L","A","E","R","N","U"],
["A","I","W","P","E","H","T","S","W"],
["Y","D","S","M","K","G","H","F","D"],
["G","E","N","I","U","S","E","P","B"],
["R","O","R","R","O","H","M","N","M"],
["R","M","F","A","D","N","E","A","D"],
["V","J","I","G","B","S","G","C","W"],
["W","S","P","E","M","I","U","A","L"],
["X","E","K","Y","C","F","L","E","B"]],

"wordPlacements":[
{"word":"GENIUS","row":3,"col":0,"h":1,"v":0},
{"word":"HORROR","row":4,"col":5,"h":-1,"v":0},
{"word":"LEGEND","row":0,"col":3,"h":1,"v":1},
{"word":"MAGIC","row":4,"col":8,"h":-1,"v":1},
{"word":"MIRAGE","row":2,"col":3,"h":0,"v":1},
{"word":"THEME","row":1,"col":6,"h":0,"v":1},
{"word":"UNREAL","row":0,"col":8,"h":-1,"v":0},
{"word":"VISION","row":0,"col":0,"h":1,"v":1}]}























