{"rows":7,"cols":7,
   "words":["PARTY","CLUB","POP","DISCO","BALLET","TANGO","RAP"],
    "boardCharacters":[
                       ["C","E","B","H","D","K","Y"],
                       ["L","C","C","I","O","T","U"],
                       ["U","M","S","G","R","E","S"],
                       ["B","C","N","A","M","L","W"],
                       ["O","A","P","O","V","L","R"],
                       ["T","P","U","O","C","A","Q"],
                       ["T","R","T","C","P","B","C"]
                       ],
    "wordPlacements":[{"word":"PARTY","row":4,"col":2,"h":1,"v":-1},
                      {"word":"CLUB","row":0,"col":0,"h":0,"v":1},
                      {"word":"POP","row":4,"col":2,"h":1,"v":1},
                      {"word":"DISCO","row":0,"col":4,"h":-1,"v":1},
                      {"word":"BALLET","row":6,"col":5,"h":0,"v":-1},
                      {"word":"TANGO","row":5,"col":0,"h":1,"v":-1},
                      {"word":"RAP","row":4,"col":6,"h":-1,"v":1}
                      ]}
