{"rows":9,"cols":9,"words":["AIR","COPY","DECK","EARTH","EXIST","FADE","GAIN","HANG","HEAR","INTO","LABEL","LIGHT","LOCAL","MINE"],
"boardCharacters":[
["N","J","E","T","S","I","X","E","L"], 
["M","I","F","W","R","H","N","I","Y"], 
["Y","F","A","A","D","O","G","T","P"], 
["F","U","E","G","D","H","L","E","O"], 
["E","H","Y","Y","T","E","A","A","C"], 
["N","K","C","E","D","Q","B","R","G"], 
["I","G","N","A","H","A","E","T","W"], 
["M","J","M","Z","F","I","L","H","Q"], 
["L","O","C","A","L","R","M","E","V"]
],
"wordPlacements":[
{"word":"AIR","row":6,"col":5,"h":0,"v":1},
{"word":"COPY","row":4,"col":8,"h":0,"v":-1},
{"word":"DECK","row":5,"col":4,"h":-1,"v":0},
{"word":"EARTH","row":3,"col":7,"h":0,"v":1},
{"word":"EXIST","row":0,"col":7,"h":-1,"v":0},
{"word":"FADE","row":1,"col":2,"h":1,"v":1},
{"word":"GAIN","row":3,"col":3,"h":-1,"v":-1},
{"word":"HANG","row":6,"col":4,"h":-1,"v":0},
{"word":"HEAR","row":4,"col":1,"h":1,"v":-1},
{"word":"INTO","row":0,"col":5,"h":1,"v":1},
{"word":"LABEL","row":3,"col":6,"h":0,"v":1},
{"word":"LIGHT","row":0,"col":8,"h":-1,"v":1},
{"word":"LOCAL","row":8,"col":0,"h":1,"v":0},
{"word":"MINE","row":7,"col":0,"h":0,"v":-1}]}




































