{"rows":6,"cols":6,"words":["ACT","AIM","DISH","EAT","EYE","ICE","JOB","LAW","NOW","WAY"],
"boardCharacters":[
["A","O","E","C","I","E"], 
["M","Y","T","C","A","A"], 
["E","I","Y","W","J","T"], 
["Z","A","A","O","O","W"], 
["W","R","N","N","B","A"], 
["D","I","S","H","S","L"]
],

"wordPlacements":[
{"word":"ACT","row":1,"col":4,"h":-1,"v":0},
{"word":"AIM","row":3,"col":2,"h":-1,"v":-1},
{"word":"DISH","row":5,"col":0,"h":1,"v":0},
{"word":"EAT","row":0,"col":5,"h":0,"v":1},
{"word":"EYE","row":0,"col":2,"h":-1,"v":1},
{"word":"ICE","row":0,"col":4,"h":-1,"v":0},
{"word":"JOB","row":2,"col":4,"h":0,"v":1},
{"word":"LAW","row":5,"col":5,"h":0,"v":-1},
{"word":"NOW","row":4,"col":3,"h":0,"v":-1},
{"word":"WAY","row":4,"col":0,"h":1,"v":-1}]}





































