{"rows":10,"cols":10,"words":["ARMY","BORDER","CHINA","DEATH","FORT","KING","LAND","NOMAD","SHIELD","STONE","SWORD","TERRITORY","TYRANT"],
"boardCharacters":[
["T","Y","M","R","A","S","A","Y","X","B"], 
["N","E","H","V","J","T","N","I","H","Q"], 
["S","O","R","G","W","O","I","S","K","T"],
["D","H","M","R","V","N","H","X","N","U"], 
["L","N","I","A","I","E","C","A","Q","K"], 
["E","E","A","E","D","T","R","U","I","F"], 
["B","G","V","L","L","Y","O","N","S","O"], 
["H","M","H","H","T","D","G","R","M","R"], 
["A","T","B","O","R","D","E","R","Y","T"], 
["H","T","A","E","D","S","W","O","R","D"] 
],
"wordPlacements":[
{"word":"ARMY","row":0,"col":4,"h":-1,"v":0},
{"word":"BORDER","row":8,"col":2,"h":1,"v":0},
{"word":"CHINA","row":4,"col":6,"h":0,"v":-1},
{"word":"DEATH","row":9,"col":4,"h":-1,"v":0},
{"word":"FORT","row":5,"col":9,"h":0,"v":1},
{"word":"KING","row":4,"col":9,"h":-1,"v":1},
{"word":"LAND","row":6,"col":3,"h":-1,"v":-1},
{"word":"NOMAD","row":1,"col":0,"h":1,"v":1},
{"word":"SHIELD","row":2,"col":0,"h":1,"v":1},
{"word":"STONE","row":0,"col":5,"h":0,"v":1},
{"word":"SWORD","row":9,"col":5,"h":1,"v":0},
{"word":"TERRITORY","row":0,"col":0,"h":1,"v":1},
{"word":"TYRANT","row":7,"col":4,"h":1,"v":-1}]}













































