{"rows":8,"cols":9,"words":["COURAGE","LAUD","PLIGHT","SUFFER","SURGE","TRAIT","WORSHIP"],

"boardCharacters":[
["T","E","P","I","H","S","R","O","W"],
["C","H","G","S","O","X","Y","R","B"],
["B","O","G","P","T","W","S","X","Y"],
["L","F","U","I","U","P","L","Z","R"],
["A","Y","L","P","L","S","A","G","T"],
["U","R","C","Z","A","P","Y","I","Z"],
["D","Q","Q","W","P","G","G","F","T"],
["R","E","F","F","U","S","E","D","G"]],

"wordPlacements":
[{"word":"COURAGE","row":1,"col":0,"h":1,"v":1},
{"word":"LAUD","row":3,"col":0,"h":0,"v":1},
{"word":"PLIGHT","row":5,"col":5,"h":-1,"v":-1},
{"word":"SUFFER","row":7,"col":5,"h":-1,"v":0},
{"word":"SURGE","row":4,"col":5,"h":-1,"v":-1},
{"word":"TRAIT","row":2,"col":4,"h":1,"v":1},
{"word":"WORSHIP","row":0,"col":8,"h":-1,"v":0}]}