{"rows":9,"cols":9,"words":["BASEBALL","CRICKET","FOOTBALL","GOLF","HOCKEY","RUGBY","TENNIS"],

"boardCharacters":[
["E","S","B","S","B","Y","B","Y","O"],
["E","L","K","M","A","B","Q","E","X"],
["H","J","L","U","S","G","G","K","L"],
["S","I","A","A","E","U","O","C","I"],
["I","D","N","O","B","R","L","O","X"],
["N","H","X","U","A","T","F","H","I"],
["N","S","R","Z","L","R","O","M","M"],
["E","P","P","P","L","S","U","O","Q"],
["T","E","K","C","I","R","C","Z","F"]],

"wordPlacements":
[{"word":"BASEBALL","row":0,"col":4,"h":0,"v":1},
{"word":"CRICKET","row":8,"col":6,"h":-1,"v":0},
{"word":"FOOTBALL","row":8,"col":8,"h":-1,"v":-1},
{"word":"GOLF","row":2,"col":6,"h":0,"v":1},
{"word":"HOCKEY","row":5,"col":7,"h":0,"v":-1},
{"word":"RUGBY","row":4,"col":5,"h":0,"v":-1},
{"word":"TENNIS","row":8,"col":0,"h":0,"v":-1}]}