{"rows":11,"cols":11,
    "words":["CROATIA","FINLAND","IRELAND","JAMAICA","KUWAIT","LIBERIA","MOLDOVA","MONGOLIA","NORWAY","OMAN","PANAMA","SLOVAKIA","URUGUAY"],
    "boardCharacters":[["J","A","M","A","I","C","A","I","A","U","W"],
                       ["R","Q","C","P","V","N","I","R","I","R","X"],
                       ["D","D","Y","J","G","P","K","E","T","U","A"],
                       ["A","N","P","S","A","J","A","L","A","G","I"],
                       ["L","C","A","N","K","Y","V","A","O","U","L"],
                       ["T","I","A","L","A","B","O","N","R","A","O"],
                       ["E","M","B","W","N","H","L","D","C","Y","G"],
                       ["A","U","R","E","V","I","S","O","M","A","N"],
                       ["S","O","A","V","R","E","F","W","V","D","O"],
                       ["N","I","R","Z","T","I","A","W","U","K","M"],
                       ["M","O","L","D","O","V","A","E","C","E","W"]],
    
    "wordPlacements":[{"word":"CROATIA","row":6,"col":8,"h":0,"v":-1},
                      {"word":"FINLAND","row":8,"col":6,"h":-1,"v":-1},
                      {"word":"IRELAND","row":0,"col":7,"h":0,"v":1},
                      {"word":"JAMAICA","row":0,"col":0,"h":1,"v":0},
                      {"word":"KUWAIT","row":9,"col":9,"h":-1,"v":0},
                      {"word":"LIBERIA","row":4,"col":0,"h":1,"v":1},
                      {"word":"MOLDOVA","row":10,"col":0,"h":1,"v":0},
                      {"word":"MONGOLIA","row":9,"col":10,"h":0,"v":-1},
                      {"word":"NORWAY","row":9,"col":0,"h":1,"v":-1},
                      {"word":"OMAN","row":7,"col":7,"h":1,"v":0},
                      {"word":"PANAMA","row":2,"col":5,"h":-1,"v":1},
                      {"word":"SLOVAKIA","row":7,"col":6,"h":0,"v":-1},
                      {"word":"URUGUAY","row":0,"col":9,"h":0,"v":1}
                      ]}








































































































