{"rows":12,"cols":12,
    "words":["AUSTRALIA","CAMBODIA","COLOMBIA","DENMARK","LEBANON","MALAWI","MALAYSIA","PORTUGAL","ROMANIA","SRILANKA","VENEZUELA","ZIMBABWE"],
    "boardCharacters":[["C","D","D","E","N","M","A","R","K","E","S","A"],
                       ["D","O","G","I","A","C","O","B","W","J","R","I"],
                       ["A","D","L","Q","G","M","O","B","J","I","I","S"],
                       ["N","I","J","O","A","V","A","X","V","R","L","Y"],
                       ["O","P","D","N","M","B","Q","L","E","P","A","A"],
                       ["N","U","I","O","M","B","Y","Z","N","O","N","L"],
                       ["A","A","S","I","B","A","I","Z","E","R","K","A"],
                       ["B","E","Z","J","S","M","Q","A","Z","T","A","M"],
                       ["E","D","K","W","X","N","A","Y","U","U","A","M"],
                       ["L","A","U","M","I","K","V","C","E","G","X","T"],
                       ["I","W","A","L","A","M","T","S","L","A","A","N"],
                       ["A","U","S","T","R","A","L","I","A","L","L","J"]],
    
    "wordPlacements":[{"word":"AUSTRALIA","row":11,"col":0,"h":1,"v":0},
                      {"word":"CAMBODIA","row":9,"col":7,"h":-1,"v":-1},
                      {"word":"COLOMBIA","row":0,"col":0,"h":1,"v":1},
                      {"word":"DENMARK","row":0,"col":2,"h":1,"v":0},
                      {"word":"LEBANON","row":9,"col":0,"h":0,"v":-1},
                      {"word":"MALAWI","row":10,"col":5,"h":-1,"v":0},
                      {"word":"MALAYSIA","row":7,"col":11,"h":0,"v":-1},
                      {"word":"PORTUGAL","row":4,"col":9,"h":0,"v":1},
                      {"word":"ROMANIA","row":0,"col":7,"h":-1,"v":1},
                      {"word":"SRILANKA","row":0,"col":10,"h":0,"v":1},
                      {"word":"VENEZUELA","row":3,"col":8,"h":0,"v":1},
                      {"word":"ZIMBABWE","row":7,"col":2,"h":1,"v":-1}
                      ]}







































































































