{"rows":7,"cols":7,"words":["ABUSE","CURE","PEACE","POLICE","RISK","SLOW","SPIRIT","TIRED"],

"boardCharacters":[
["A","D","N","S","C","E","R"],
["X","B","L","I","U","C","I"],
["T","O","U","O","R","I","S"],
["W","F","X","S","E","L","K"],
["P","E","A","C","E","O","S"],
["D","E","R","I","T","P","Z"],
["T","I","R","I","P","S","Y"]
],

"wordPlacements":
[{"word":"ABUSE","row":0,"col":0,"h":1,"v":1},
{"word":"CURE","row":0,"col":4,"h":0,"v":1},
{"word":"PEACE","row":4,"col":0,"h":1,"v":0},
{"word":"POLICE","row":5,"col":5,"h":0,"v":-1},
{"word":"RISK","row":0,"col":6,"h":0,"v":1},
{"word":"SLOW","row":0,"col":3,"h":-1,"v":1},
{"word":"SPIRIT","row":6,"col":5,"h":-1,"v":0},
{"word":"TIRED","row":5,"col":4,"h":-1,"v":0}]}