{"rows":11,"cols":11,"words":["BENGALVINE","CURTAIN","MADHUMALTI","MALPHIGIA","MANDEVILLA","NELSONIA","PASSIFLORA","TAECOMA"],
"boardCharacters":[
["M","I","M","I","G","I","O","X","R","M","A"],
["A","T","J","A","O","T","L","V","N","V","R"],
["N","L","O","O","L","S","Q","I","V","A","R"],
["D","A","I","H","E","P","A","Y","M","V","L"],
["E","M","L","G","H","T","H","O","H","K","F"],
["V","U","T","H","R","K","C","I","M","H","I"],
["I","H","T","U","N","E","T","S","G","N","S"],
["L","D","C","N","A","Y","G","E","I","I","S"],
["L","A","Q","T","S","K","Y","Z","P","P","A"],
["A","M","N","E","L","S","O","N","I","A","P"],
["E","B","E","N","G","A","L","V","I","N","E"]],
"wordPlacements":[
{"word":"BENGALVINE","row":10,"col":1,"h":1,"v":0},
{"word":"CURTAIN","row":7,"col":2,"h":1,"v":-1},
{"word":"MADHUMALTI","row":9,"col":1,"h":0,"v":-1},
{"word":"MALPHIGIA","row":0,"col":2,"h":1,"v":1},
{"word":"MANDEVILLA","row":0,"col":0,"h":0,"v":1},
{"word":"NELSONIA","row":9,"col":2,"h":1,"v":0},
{"word":"PASSIFLORA","row":9,"col":10,"h":0,"v":-1},
{"word":"TAECOMA","row":8,"col":3,"h":1,"v":-1}]}


















