{"rows":9,"cols":9,"words":["ACE","BET","BOARD","DIAMOND","DICE","DOMINOES","FLUSH","HEART","JACKPOT","ROOK","STRAIGHT"],
"boardCharacters":[
["S","E","O","N","I","M","O","D","Q"], 
["T","N","T","Z","A","S","N","T","E"],  
["R","O","R","J","U","O","E","C","F"],  
["A","O","D","M","M","E","I","L","C"],  
["I","B","O","A","R","D","U","Y","C"],  
["G","O","I","K","C","S","L","T","N"],  
["H","D","F","K","H","E","A","R","T"],  
["T","O","P","K","C","A","J","P","E"],  
["N","M","H","O","B","C","D","H","B"] 
],
"wordPlacements":[
{"word":"ACE","row":4,"col":3,"h":1,"v":1},
{"word":"BET","row":8,"col":8,"h":0,"v":-1},
{"word":"BOARD","row":4,"col":1,"h":1,"v":0},
{"word":"DIAMOND","row":6,"col":1,"h":1,"v":-1},
{"word":"DICE","row":4,"col":5,"h":1,"v":-1},
{"word":"DOMINOES","row":0,"col":7,"h":-1,"v":0},
{"word":"FLUSH","row":2,"col":8,"h":-1,"v":1},
{"word":"HEART","row":6,"col":4,"h":1,"v":0},
{"word":"JACKPOT","row":7,"col":6,"h":-1,"v":0},
{"word":"ROOK","row":2,"col":0,"h":1,"v":1},
{"word":"STRAIGHT","row":0,"col":0,"h":0,"v":1}]}


































